HW1_DIGITALLIFE/DigitalLife/simulation/qsim/DigitalLife.msim.vcd
$comment
	File created using the following command:
		vcd file DigitalLife.msim.vcd -direction
$end
$date
	Wed Mar 18 22:39:32 2020
$end
$version
	ModelSim Version 10.1d
$end
$timescale
	1ps
$end
$scope module DigitalLife_vlg_vec_tst $end
$var reg 1 ! clk $end
$var reg 1 " rst $end
$var wire 1 # even_out [3] $end
$var wire 1 $ even_out [2] $end
$var wire 1 % even_out [1] $end
$var wire 1 & even_out [0] $end
$var wire 1 ' natural_out [6] $end
$var wire 1 ( natural_out [5] $end
$var wire 1 ) natural_out [4] $end
$var wire 1 * natural_out [3] $end
$var wire 1 + natural_out [2] $end
$var wire 1 , natural_out [1] $end
$var wire 1 - natural_out [0] $end
$var wire 1 . natural_out_test [3] $end
$var wire 1 / natural_out_test [2] $end
$var wire 1 0 natural_out_test [1] $end
$var wire 1 1 natural_out_test [0] $end
$var wire 1 2 odd_out [3] $end
$var wire 1 3 odd_out [2] $end
$var wire 1 4 odd_out [1] $end
$var wire 1 5 odd_out [0] $end
$var wire 1 6 sampler $end
$scope module i1 $end
$var wire 1 7 gnd $end
$var wire 1 8 vcc $end
$var wire 1 9 unknown $end
$var tri1 1 : devclrn $end
$var tri1 1 ; devpor $end
$var tri1 1 < devoe $end
$var wire 1 = clk~combout $end
$var wire 1 > rst~combout $end
$var wire 1 ? Mux6~0_combout $end
$var wire 1 @ Mux5~0_combout $end
$var wire 1 A Mux4~0_combout $end
$var wire 1 B Mux3~0_combout $end
$var wire 1 C Mux2~0_combout $end
$var wire 1 D Mux1~0_combout $end
$var wire 1 E Mux0~0_combout $end
$var wire 1 F natural_seq [3] $end
$var wire 1 G natural_seq [2] $end
$var wire 1 H natural_seq [1] $end
$var wire 1 I natural_seq [0] $end
$var wire 1 J even_seq [3] $end
$var wire 1 K even_seq [2] $end
$var wire 1 L even_seq [1] $end
$var wire 1 M even_seq [0] $end
$upscope $end
$upscope $end
$enddefinitions $end
#0
$dumpvars
0!
0"
0&
0%
0$
0#
0-
1,
1+
1*
1)
1(
1'
01
00
0/
0.
15
04
03
02
x6
07
18
x9
1:
1;
1<
0=
0>
0?
0@
0A
0B
0C
0D
0E
0I
0H
0G
0F
zM
0L
0K
0J
$end
#20000
1!
1=
06
#40000
0!
0=
16
1I
1L
1E
1B
1A
1@
11
1%
14
0'
0*
0+
0,
#60000
1!
1=
06
#80000
0!
0=
16
0I
1H
1K
0L
0E
1C
0B
0A
1?
01
10
1$
13
0%
04
1-
1'
0)
1*
1+
#100000
1!
1=
06
#120000
0!
0=
16
1I
1L
0C
1A
11
1%
14
1)
0+
#140000
1!
1=
06
#160000
0!
0=
16
0I
0H
1G
0K
1J
0L
1E
1B
0@
01
00
1/
0$
03
1#
12
0%
04
0'
0*
1,
#180000
1!
1=
06
#200000
0!
0=
16
1I
0J
0E
1D
0B
11
0#
02
1'
0(
1*
#220000
1!
1=
06
#240000
0!
0=
16
0I
1H
1L
0A
01
10
1%
14
1+
#260000
1!
1=
06
#280000
0!
0=
16
1I
1K
0L
0D
1B
1A
1@
0?
11
1$
13
0%
04
0-
1(
0*
0+
0,
#300000
1!
1=
06
#320000
0!
0=
16
0I
0H
0G
1F
1L
0B
0A
0@
1?
01
00
0/
1.
1%
14
1-
1*
1+
1,
#340000
1!
1=
06
#360000
0!
0=
16
1I
0K
1J
0L
1B
1A
11
0$
03
1#
12
0%
04
0*
0+
#380000
1!
1=
06
#400000
0!
0=
16
0I
1H
0J
0A
01
10
0#
02
1+
#420000
1!
1=
06
#440000
0!
0=
16
1I
1L
1E
1D
0B
11
1%
14
0'
0(
1*
#460000
1!
1=
06
#480000
0!
0=
16
0I
0H
1G
1K
0L
0E
1C
0?
01
00
1/
1$
13
0%
04
0-
1'
0)
#500000
1!
1=
06
#520000
0!
0=
16
1I
1L
1E
0D
0C
1@
1?
11
1%
14
1-
0'
1(
1)
0,
#540000
1!
1=
06
#560000
0!
0=
16
0I
1H
0K
1J
0L
0E
1D
1C
0@
01
10
0$
03
1#
12
0%
04
1'
0(
0)
1,
#580000
1!
1=
06
#600000
0!
0=
16
1I
0J
1B
11
0#
02
0*
#620000
1!
1=
06
#640000
0!
0=
16
0I
0H
0G
0F
1L
0D
0C
0B
0?
01
00
0/
0.
1%
14
0-
1(
1)
1*
#660000
1!
1=
06
#680000
0!
0=
16
1I
1K
0L
1E
1B
1A
1@
11
1$
13
0%
04
0'
0*
0+
0,
#700000
1!
1=
06
#720000
0!
0=
16
0I
1H
1L
0E
1C
0B
0A
1?
01
10
1%
14
1-
1'
0)
1*
1+
#740000
1!
1=
06
#760000
0!
0=
16
1I
0K
1J
0L
0C
1A
11
0$
03
1#
12
0%
04
1)
0+
#780000
1!
1=
06
#800000
0!
0=
16
0I
0H
1G
0J
1E
1B
0@
01
00
1/
0#
02
0'
0*
1,
#820000
1!
1=
06
#840000
0!
0=
16
1I
1L
0E
1D
0B
11
1%
14
1'
0(
1*
#860000
1!
1=
06
#880000
0!
0=
16
0I
1H
1K
0L
0A
01
10
1$
13
0%
04
1+
#900000
1!
1=
06
#920000
0!
0=
16
1I
1L
0D
1B
1A
1@
0?
11
1%
14
0-
1(
0*
0+
0,
#940000
1!
1=
06
#960000
0!
0=
16
0I
0H
0G
1F
0K
1J
0L
0B
0A
0@
1?
01
00
0/
1.
0$
03
1#
12
0%
04
1-
1*
1+
1,
#980000
1!
1=
06
