2018011423_TrafficLight_OpenSource/Light/simulation/qsim/Light.msim.vcd
$comment
	File created using the following command:
		vcd file Light.msim.vcd -direction
$end
$date
	Thu Jun 04 15:29:09 2020
$end
$version
	ModelSim Version 10.1d
$end
$timescale
	1ps
$end
$scope module Light_vlg_vec_tst $end
$var reg 1 ! clock $end
$var reg 1 " reset $end
$var wire 1 # north_cnt [3] $end
$var wire 1 $ north_cnt [2] $end
$var wire 1 % north_cnt [1] $end
$var wire 1 & north_cnt [0] $end
$var wire 1 ' north_gre $end
$var wire 1 ( north_red $end
$var wire 1 ) north_yel $end
$var wire 1 * west_cnt [3] $end
$var wire 1 + west_cnt [2] $end
$var wire 1 , west_cnt [1] $end
$var wire 1 - west_cnt [0] $end
$var wire 1 . west_gre $end
$var wire 1 / west_red $end
$var wire 1 0 west_yel $end
$var wire 1 1 sampler $end
$scope module i1 $end
$var wire 1 2 gnd $end
$var wire 1 3 vcc $end
$var wire 1 4 unknown $end
$var tri1 1 5 devclrn $end
$var tri1 1 6 devpor $end
$var tri1 1 7 devoe $end
$var wire 1 8 clock~combout $end
$var wire 1 9 reset~combout $end
$var wire 1 : cnt[0]~1 $end
$var wire 1 ; cnt[1]~3 $end
$var wire 1 < cnt[1]~3COUT1_90 $end
$var wire 1 = cnt[2]~5 $end
$var wire 1 > cnt[2]~5COUT1_92 $end
$var wire 1 ? cnt[3]~7 $end
$var wire 1 @ cnt[3]~7COUT1_94 $end
$var wire 1 A cnt[4]~9 $end
$var wire 1 B cnt[4]~9COUT1_96 $end
$var wire 1 C cnt[5]~11 $end
$var wire 1 D cnt[6]~13 $end
$var wire 1 E cnt[6]~13COUT1_98 $end
$var wire 1 F cnt[7]~15 $end
$var wire 1 G cnt[7]~15COUT1_100 $end
$var wire 1 H cnt[8]~17 $end
$var wire 1 I cnt[8]~17COUT1_102 $end
$var wire 1 J cnt[9]~19 $end
$var wire 1 K cnt[9]~19COUT1_104 $end
$var wire 1 L cnt[10]~21 $end
$var wire 1 M cnt[11]~23 $end
$var wire 1 N cnt[11]~23COUT1_106 $end
$var wire 1 O cnt[12]~25 $end
$var wire 1 P cnt[12]~25COUT1_108 $end
$var wire 1 Q cnt[13]~27 $end
$var wire 1 R cnt[13]~27COUT1_110 $end
$var wire 1 S cnt[14]~29 $end
$var wire 1 T cnt[14]~29COUT1_112 $end
$var wire 1 U cnt[15]~31 $end
$var wire 1 V cnt[16]~33 $end
$var wire 1 W cnt[16]~33COUT1_114 $end
$var wire 1 X cnt[17]~35 $end
$var wire 1 Y cnt[17]~35COUT1_116 $end
$var wire 1 Z cnt[18]~37 $end
$var wire 1 [ cnt[18]~37COUT1_118 $end
$var wire 1 \ cnt[19]~39 $end
$var wire 1 ] cnt[19]~39COUT1_120 $end
$var wire 1 ^ cnt[20]~41 $end
$var wire 1 _ cnt[21]~43 $end
$var wire 1 ` cnt[21]~43COUT1_122 $end
$var wire 1 a cnt[22]~45 $end
$var wire 1 b cnt[22]~45COUT1_124 $end
$var wire 1 c cnt[23]~47 $end
$var wire 1 d cnt[23]~47COUT1_126 $end
$var wire 1 e cnt[24]~49 $end
$var wire 1 f cnt[24]~49COUT1_128 $end
$var wire 1 g cnt[25]~51 $end
$var wire 1 h cnt[26]~53 $end
$var wire 1 i cnt[26]~53COUT1_130 $end
$var wire 1 j cnt[27]~55 $end
$var wire 1 k cnt[27]~55COUT1_132 $end
$var wire 1 l cnt[28]~57 $end
$var wire 1 m cnt[28]~57COUT1_134 $end
$var wire 1 n cnt[29]~59 $end
$var wire 1 o cnt[29]~59COUT1_136 $end
$var wire 1 p cnt[30]~61 $end
$var wire 1 q LessThan0~3_combout $end
$var wire 1 r LessThan0~0_combout $end
$var wire 1 s LessThan0~1_combout $end
$var wire 1 t LessThan0~2_combout $end
$var wire 1 u LessThan0~4_combout $end
$var wire 1 v LessThan0~6_combout $end
$var wire 1 w LessThan0~5_combout $end
$var wire 1 x LessThan0~7_combout $end
$var wire 1 y LessThan0~8_combout $end
$var wire 1 z LessThan0~9_combout $end
$var wire 1 { LessThan0~10_combout $end
$var wire 1 | Add1~0_combout $end
$var wire 1 } Equal0~0_combout $end
$var wire 1 ~ north_red~1_combout $end
$var wire 1 !! north_state.red~regout $end
$var wire 1 "! north_state.gre~regout $end
$var wire 1 #! north_state.yel~regout $end
$var wire 1 $! north_red~reg0_regout $end
$var wire 1 %! north_yel~reg0_regout $end
$var wire 1 &! north_gre~reg0_regout $end
$var wire 1 '! Add2~0_combout $end
$var wire 1 (! west_red~1_combout $end
$var wire 1 )! Selector16~0 $end
$var wire 1 *! west_state.red~regout $end
$var wire 1 +! west_state.gre~regout $end
$var wire 1 ,! west_state.yel~regout $end
$var wire 1 -! Selector15~0_combout $end
$var wire 1 .! Equal1~0_combout $end
$var wire 1 /! west_red~reg0_regout $end
$var wire 1 0! west_yel~reg0_regout $end
$var wire 1 1! west_gre~reg0_regout $end
$var wire 1 2! west_cnt_local [3] $end
$var wire 1 3! west_cnt_local [2] $end
$var wire 1 4! west_cnt_local [1] $end
$var wire 1 5! west_cnt_local [0] $end
$var wire 1 6! north_cnt_local [3] $end
$var wire 1 7! north_cnt_local [2] $end
$var wire 1 8! north_cnt_local [1] $end
$var wire 1 9! north_cnt_local [0] $end
$var wire 1 :! cnt [31] $end
$var wire 1 ;! cnt [30] $end
$var wire 1 <! cnt [29] $end
$var wire 1 =! cnt [28] $end
$var wire 1 >! cnt [27] $end
$var wire 1 ?! cnt [26] $end
$var wire 1 @! cnt [25] $end
$var wire 1 A! cnt [24] $end
$var wire 1 B! cnt [23] $end
$var wire 1 C! cnt [22] $end
$var wire 1 D! cnt [21] $end
$var wire 1 E! cnt [20] $end
$var wire 1 F! cnt [19] $end
$var wire 1 G! cnt [18] $end
$var wire 1 H! cnt [17] $end
$var wire 1 I! cnt [16] $end
$var wire 1 J! cnt [15] $end
$var wire 1 K! cnt [14] $end
$var wire 1 L! cnt [13] $end
$var wire 1 M! cnt [12] $end
$var wire 1 N! cnt [11] $end
$var wire 1 O! cnt [10] $end
$var wire 1 P! cnt [9] $end
$var wire 1 Q! cnt [8] $end
$var wire 1 R! cnt [7] $end
$var wire 1 S! cnt [6] $end
$var wire 1 T! cnt [5] $end
$var wire 1 U! cnt [4] $end
$var wire 1 V! cnt [3] $end
$var wire 1 W! cnt [2] $end
$var wire 1 X! cnt [1] $end
$var wire 1 Y! cnt [0] $end
$upscope $end
$upscope $end
$enddefinitions $end
#0
$dumpvars
0!
0"
1&
0%
0$
1#
0'
1(
0)
1-
0,
0+
1*
1.
0/
00
x1
02
13
x4
15
16
17
08
09
0:
1;
1<
0=
0>
1?
1@
0A
0B
1C
0D
0E
1F
1G
0H
0I
1J
1K
0L
1M
1N
0O
0P
1Q
1R
0S
0T
1U
0V
0W
1X
1Y
0Z
0[
1\
1]
0^
1_
1`
0a
0b
1c
1d
0e
0f
1g
0h
0i
1j
1k
0l
0m
1n
1o
0p
0q
0r
0s
0t
0u
0v
0w
0x
0y
0z
0{
0|
0}
0~
0!!
0"!
0#!
0$!
0%!
0&!
0'!
0(!
1)!
0*!
0+!
0,!
1-!
0.!
0/!
00!
01!
05!
04!
03!
02!
09!
08!
07!
06!
0Y!
0X!
0W!
0V!
0U!
0T!
0S!
0R!
0Q!
0P!
0O!
0N!
0M!
0L!
0K!
0J!
0I!
0H!
0G!
0F!
0E!
0D!
0C!
0B!
0A!
0@!
0?!
0>!
0=!
0<!
0;!
0:!
$end
#5000
1!
18
01
1Y!
1r
1:
1u
1{
#10000
0!
08
11
#15000
1!
18
01
15!
19!
0Y!
1'!
1|
0r
0:
0-
0&
0-!
0)!
0u
0{
#20000
0!
08
11
#25000
1!
18
01
1Y!
1r
1:
1u
1{
#30000
0!
08
11
#35000
1!
18
01
05!
12!
13!
14!
09!
16!
17!
18!
0Y!
0'!
1)!
0|
0r
0:
1+
1,
1$
1%
1-
0*
1&
0#
0)!
0u
0{
#40000
0!
08
11
#45000
1!
18
01
1Y!
1r
1:
1u
1{
#50000
0!
08
11
#55000
1!
18
01
15!
19!
0Y!
0r
0:
0-
0&
0u
0{
#60000
0!
08
11
#65000
1!
18
01
1Y!
1r
1:
1u
1{
#70000
0!
08
11
#75000
1!
18
01
05!
04!
09!
08!
0Y!
0r
0:
0,
0%
1-
1&
0u
0{
#80000
0!
08
11
#85000
1!
18
01
1Y!
1r
1:
1u
1{
#90000
0!
08
11
#95000
1!
18
01
15!
19!
0Y!
1'!
1|
0r
0:
0-
0&
1)!
0u
0{
#100000
0!
08
11
#105000
1!
18
01
1Y!
1r
1:
1u
1{
#110000
0!
08
11
#115000
1!
18
01
05!
03!
14!
09!
07!
18!
0Y!
0'!
0|
0r
0:
0+
1,
0$
1%
1-
1&
0u
0{
#120000
0!
08
11
#125000
1!
18
01
1Y!
1r
1:
1u
1{
#130000
0!
08
11
#135000
1!
18
01
15!
19!
0Y!
0r
0:
0-
0&
0u
0{
#140000
0!
08
11
#145000
1!
18
01
1Y!
1r
1:
1u
1{
#150000
0!
08
11
#155000
1!
18
01
05!
04!
09!
08!
0Y!
0r
0:
0,
0%
1-
1&
0u
0{
#160000
0!
08
11
#165000
1!
18
01
1Y!
1r
1:
1u
1{
#170000
0!
08
11
#175000
1!
18
01
15!
19!
0Y!
1.!
1'!
1}
1|
0r
0:
0-
0&
1(!
1~
0u
0{
0(!
0~
#180000
0!
08
11
#185000
1!
18
01
1Y!
1r
1:
1u
1{
1(!
1~
#190000
0!
08
11
#195000
1!
18
01
11!
10!
1,!
1+!
14!
1&!
1$!
1"!
1!!
17!
18!
0Y!
1-!
0.!
0'!
0}
0|
0r
0:
10
1,
1'
1$
1%
0.
0(
0(!
0-!
0~
0u
0{
#200000
0!
08
11
#205000
1!
18
01
1Y!
1r
1:
1u
1{
#210000
0!
08
11
#215000
1!
18
01
05!
04!
09!
08!
0Y!
0r
0:
0,
0%
1-
1&
0u
0{
#220000
0!
08
11
#225000
1!
18
01
1Y!
1r
1:
1u
1{
#230000
0!
08
11
#235000
1!
18
01
15!
19!
0Y!
1.!
1'!
1|
0r
0:
0-
0&
1(!
1-!
0u
0{
0(!
#240000
0!
08
11
#245000
1!
18
01
1Y!
1r
1:
1u
1{
1(!
#250000
0!
08
11
#255000
1!
18
01
00!
1/!
05!
02!
0,!
1*!
09!
07!
18!
0Y!
0.!
0'!
0-!
0)!
0|
0r
0:
00
1/
0$
1%
1-
1*
1&
0(!
1-!
1)!
0u
0{
#260000
0!
08
11
#265000
1!
18
01
1Y!
1r
1:
1u
1{
#270000
0!
08
11
#275000
1!
18
01
15!
19!
0Y!
1'!
0r
0:
0-
0&
0-!
0)!
0u
0{
#280000
0!
08
11
#285000
1!
18
01
1Y!
1r
1:
1u
1{
#290000
0!
08
11
#295000
1!
18
01
05!
12!
13!
14!
09!
08!
0Y!
0'!
1)!
0r
0:
1+
1,
0%
1-
0*
1&
0)!
0u
0{
#300000
0!
08
11
#305000
1!
18
01
1Y!
1r
1:
1u
1{
#310000
0!
08
11
#315000
1!
18
01
15!
19!
0Y!
1}
1|
0r
0:
0-
0&
1~
0u
0{
0~
#320000
0!
08
11
#325000
1!
18
01
1Y!
1r
1:
1u
1{
1~
#330000
0!
08
11
#335000
1!
18
01
05!
04!
0&!
1%!
1#!
0"!
18!
0Y!
0}
0|
0r
0:
0,
0'
1)
1%
1-
0~
0u
0{
#340000
0!
08
11
#345000
1!
18
01
1Y!
1r
1:
1u
1{
#350000
0!
08
11
#355000
1!
18
01
15!
09!
08!
0Y!
1'!
0r
0:
0%
0-
1&
1)!
0u
0{
#360000
0!
08
11
#365000
1!
18
01
1Y!
1r
1:
1u
1{
#370000
0!
08
11
#375000
1!
18
01
05!
03!
14!
19!
0Y!
0'!
0)!
1}
1|
0r
0:
0+
1,
1-
0&
1)!
1~
0u
0{
0~
#380000
0!
08
11
#385000
1!
18
01
1Y!
1r
1:
1u
1{
1~
#390000
0!
08
11
#395000
1!
18
01
15!
0%!
0$!
09!
0#!
0!!
06!
0Y!
0}
0|
0r
0:
0)
0-
1(
1&
1#
0~
0u
0{
#400000
0!
08
11
#405000
1!
18
01
1Y!
1r
1:
1u
1{
#410000
0!
08
11
#415000
1!
18
01
05!
04!
19!
0Y!
1|
0r
0:
0,
1-
0&
0u
0{
#420000
0!
08
11
#425000
1!
18
01
1Y!
1r
1:
1u
1{
#430000
0!
08
11
#435000
1!
18
01
15!
09!
16!
17!
18!
0Y!
1.!
1'!
0|
0r
0:
1$
1%
0-
1&
0#
1(!
0)!
0u
0{
0(!
#440000
0!
08
11
#445000
1!
18
01
1Y!
1r
1:
1u
1{
1(!
#450000
0!
08
11
#455000
1!
18
01
01!
0/!
0+!
13!
0*!
14!
19!
0Y!
0.!
1)!
0'!
0r
0:
0/
1+
1,
1.
0&
0(!
0)!
0u
0{
#460000
0!
08
11
#465000
1!
18
01
1Y!
1r
1:
1u
1{
#470000
0!
08
11
#475000
1!
18
01
05!
04!
09!
08!
0Y!
0r
0:
0,
0%
1-
1&
0u
0{
#480000
0!
08
11
#485000
1!
18
01
1Y!
1r
1:
1u
1{
#490000
0!
08
11
#495000
1!
18
01
15!
19!
0Y!
1'!
1|
0r
0:
0-
0&
1)!
0u
0{
#500000
0!
08
11
#505000
1!
18
01
1Y!
1r
1:
1u
1{
#510000
0!
08
11
#515000
1!
18
01
05!
03!
14!
09!
07!
18!
0Y!
0'!
0|
0r
0:
0+
1,
0$
1%
1-
1&
0u
0{
#520000
0!
08
11
#525000
1!
18
01
1Y!
1r
1:
1u
1{
#530000
0!
08
11
#535000
1!
18
01
15!
19!
0Y!
0r
0:
0-
0&
0u
0{
#540000
0!
08
11
#545000
1!
18
01
1Y!
1r
1:
1u
1{
#550000
0!
08
11
#555000
1!
18
01
05!
04!
09!
08!
0Y!
0r
0:
0,
0%
1-
1&
0u
0{
#560000
0!
08
11
#565000
1!
18
01
1Y!
1r
1:
1u
1{
#570000
0!
08
11
#575000
1!
18
01
15!
19!
0Y!
1.!
1'!
1}
1|
0r
0:
0-
0&
1(!
1~
0u
0{
0(!
0~
#580000
0!
08
11
#585000
1!
18
01
1Y!
1r
1:
1u
1{
1(!
1~
#590000
0!
08
11
#595000
1!
18
01
11!
10!
1,!
1+!
14!
1&!
1$!
1"!
1!!
17!
18!
0Y!
1-!
0.!
0'!
0}
0|
0r
0:
10
1,
1'
1$
1%
0.
0(
0(!
0-!
0~
0u
0{
#600000
0!
08
11
#605000
1!
18
01
1Y!
1r
1:
1u
1{
#610000
0!
08
11
#615000
1!
18
01
05!
04!
09!
08!
0Y!
0r
0:
0,
0%
1-
1&
0u
0{
#620000
0!
08
11
#625000
1!
18
01
1Y!
1r
1:
1u
1{
#630000
0!
08
11
#635000
1!
18
01
15!
19!
0Y!
1.!
1'!
1|
0r
0:
0-
0&
1(!
1-!
0u
0{
0(!
#640000
0!
08
11
#645000
1!
18
01
1Y!
1r
1:
1u
1{
1(!
#650000
0!
08
11
#655000
1!
18
01
00!
1/!
05!
02!
0,!
1*!
09!
07!
18!
0Y!
0.!
0'!
0-!
0)!
0|
0r
0:
00
1/
0$
1%
1-
1*
1&
0(!
1-!
1)!
0u
0{
#660000
0!
08
11
#665000
1!
18
01
1Y!
1r
1:
1u
1{
#670000
0!
08
11
#675000
1!
18
01
15!
19!
0Y!
1'!
0r
0:
0-
0&
0-!
0)!
0u
0{
#680000
0!
08
11
#685000
1!
18
01
1Y!
1r
1:
1u
1{
#690000
0!
08
11
#695000
1!
18
01
05!
12!
13!
14!
09!
08!
0Y!
0'!
1)!
0r
0:
1+
1,
0%
1-
0*
1&
0)!
0u
0{
#700000
0!
08
11
#705000
1!
18
01
1Y!
1r
1:
1u
1{
#710000
0!
08
11
#715000
1!
18
01
15!
19!
0Y!
1}
1|
0r
0:
0-
0&
1~
0u
0{
0~
#720000
0!
08
11
#725000
1!
18
01
1Y!
1r
1:
1u
1{
1~
#730000
0!
08
11
#735000
1!
18
01
05!
04!
0&!
1%!
1#!
0"!
18!
0Y!
0}
0|
0r
0:
0,
0'
1)
1%
1-
0~
0u
0{
#740000
0!
08
11
#745000
1!
18
01
1Y!
1r
1:
1u
1{
#750000
0!
08
11
#755000
1!
18
01
15!
09!
08!
0Y!
1'!
0r
0:
0%
0-
1&
1)!
0u
0{
#760000
0!
08
11
#765000
1!
18
01
1Y!
1r
1:
1u
1{
#770000
0!
08
11
#775000
1!
18
01
05!
03!
14!
19!
0Y!
0'!
0)!
1}
1|
0r
0:
0+
1,
1-
0&
1)!
1~
0u
0{
0~
#780000
0!
08
11
#785000
1!
18
01
1Y!
1r
1:
1u
1{
1~
#790000
0!
08
11
#795000
1!
18
01
15!
0%!
0$!
09!
0#!
0!!
06!
0Y!
0}
0|
0r
0:
0)
0-
1(
1&
1#
0~
0u
0{
#800000
0!
08
11
#805000
1!
18
01
1Y!
1r
1:
1u
1{
#810000
0!
08
11
#815000
1!
18
01
05!
04!
19!
0Y!
1|
0r
0:
0,
1-
0&
0u
0{
#820000
0!
08
11
#825000
1!
18
01
1Y!
1r
1:
1u
1{
#830000
0!
08
11
#835000
1!
18
01
15!
09!
16!
17!
18!
0Y!
1.!
1'!
0|
0r
0:
1$
1%
0-
1&
0#
1(!
0)!
0u
0{
0(!
#840000
0!
08
11
#845000
1!
18
01
1Y!
1r
1:
1u
1{
1(!
#850000
0!
08
11
#855000
1!
18
01
01!
0/!
0+!
13!
0*!
14!
19!
0Y!
0.!
1)!
0'!
0r
0:
0/
1+
1,
1.
0&
0(!
0)!
0u
0{
#860000
0!
08
11
#865000
1!
18
01
1Y!
1r
1:
1u
1{
#870000
0!
08
11
#875000
1!
18
01
05!
04!
09!
08!
0Y!
0r
0:
0,
0%
1-
1&
0u
0{
#880000
0!
08
11
#885000
1!
18
01
1Y!
1r
1:
1u
1{
#890000
0!
08
11
#895000
1!
18
01
15!
19!
0Y!
1'!
1|
0r
0:
0-
0&
1)!
0u
0{
#900000
0!
08
11
#905000
1!
18
01
1Y!
1r
1:
1u
1{
#910000
0!
08
11
#915000
1!
18
01
05!
03!
14!
09!
07!
18!
0Y!
0'!
0|
0r
0:
0+
1,
0$
1%
1-
1&
0u
0{
#920000
0!
08
11
#925000
1!
18
01
1Y!
1r
1:
1u
1{
#930000
0!
08
11
#935000
1!
18
01
15!
19!
0Y!
0r
0:
0-
0&
0u
0{
#940000
0!
08
11
#945000
1!
18
01
1Y!
1r
1:
1u
1{
#950000
0!
08
11
#955000
1!
18
01
05!
04!
09!
08!
0Y!
0r
0:
0,
0%
1-
1&
0u
0{
#960000
0!
08
11
#965000
1!
18
01
1Y!
1r
1:
1u
1{
#970000
0!
08
11
#975000
1!
18
01
15!
19!
0Y!
1.!
1'!
1}
1|
0r
0:
0-
0&
1(!
1~
0u
0{
0(!
0~
#980000
0!
08
11
#985000
1!
18
01
1Y!
1r
1:
1u
1{
1(!
1~
#990000
0!
08
11
#995000
1!
18
01
11!
10!
1,!
1+!
14!
1&!
1$!
1"!
1!!
17!
18!
0Y!
1-!
0.!
0'!
0}
0|
0r
0:
10
1,
1'
1$
1%
0.
0(
0(!
0-!
0~
0u
0{
