HW3_Counter_raw/CounterStructural/simulation/qsim/Counter.msim.vcd
$comment
	File created using the following command:
		vcd file Counter.msim.vcd -direction
$end
$date
	Mon Apr 27 20:19:55 2020
$end
$version
	ModelSim Version 10.1d
$end
$timescale
	1ps
$end
$scope module Counter_vlg_vec_tst $end
$var reg 1 ! clock $end
$var reg 1 " reset $end
$var wire 1 # natural_out_encoded_0 [6] $end
$var wire 1 $ natural_out_encoded_0 [5] $end
$var wire 1 % natural_out_encoded_0 [4] $end
$var wire 1 & natural_out_encoded_0 [3] $end
$var wire 1 ' natural_out_encoded_0 [2] $end
$var wire 1 ( natural_out_encoded_0 [1] $end
$var wire 1 ) natural_out_encoded_0 [0] $end
$var wire 1 * natural_out_encoded_1 [6] $end
$var wire 1 + natural_out_encoded_1 [5] $end
$var wire 1 , natural_out_encoded_1 [4] $end
$var wire 1 - natural_out_encoded_1 [3] $end
$var wire 1 . natural_out_encoded_1 [2] $end
$var wire 1 / natural_out_encoded_1 [1] $end
$var wire 1 0 natural_out_encoded_1 [0] $end
$var wire 1 1 natural_out_test_0 [3] $end
$var wire 1 2 natural_out_test_0 [2] $end
$var wire 1 3 natural_out_test_0 [1] $end
$var wire 1 4 natural_out_test_0 [0] $end
$var wire 1 5 natural_out_test_1 [3] $end
$var wire 1 6 natural_out_test_1 [2] $end
$var wire 1 7 natural_out_test_1 [1] $end
$var wire 1 8 natural_out_test_1 [0] $end
$var wire 1 9 sampler $end
$scope module i1 $end
$var wire 1 : gnd $end
$var wire 1 ; vcc $end
$var wire 1 < unknown $end
$var tri1 1 = devclrn $end
$var tri1 1 > devpor $end
$var tri1 1 ? devoe $end
$var wire 1 @ clock~combout $end
$var wire 1 A reset~combout $end
$var wire 1 B u0|Q~regout $end
$var wire 1 C u2|Q~regout $end
$var wire 1 D u3|Q~regout $end
$var wire 1 E u1|Q~regout $end
$var wire 1 F natural_out_encoded_0[0]~reg0_regout $end
$var wire 1 G natural_out_encoded_0[1]~reg0_regout $end
$var wire 1 H natural_out_encoded_0[2]~reg0_regout $end
$var wire 1 I natural_out_encoded_0[3]~reg0_regout $end
$var wire 1 J natural_out_encoded_0[4]~reg0_regout $end
$var wire 1 K natural_out_encoded_0[5]~reg0_regout $end
$var wire 1 L natural_out_encoded_0[6]~reg0_regout $end
$var wire 1 M Equal0~0_combout $end
$var wire 1 N Add0~0_combout $end
$var wire 1 O natural_out_encoded_1[0]~reg0_regout $end
$var wire 1 P natural_out_encoded_1[1]~reg0_regout $end
$var wire 1 Q natural_out_encoded_1[2]~reg0_regout $end
$var wire 1 R natural_out_encoded_1[3]~reg0_regout $end
$var wire 1 S natural_out_encoded_1[4]~reg0_regout $end
$var wire 1 T natural_out_encoded_1[5]~reg0_regout $end
$var wire 1 U natural_out_encoded_1[6]~reg0_regout $end
$var wire 1 V natural_seq_hex_1 [3] $end
$var wire 1 W natural_seq_hex_1 [2] $end
$var wire 1 X natural_seq_hex_1 [1] $end
$var wire 1 Y natural_seq_hex_1 [0] $end
$upscope $end
$upscope $end
$enddefinitions $end
#0
$dumpvars
0!
0"
0)
1(
1'
1&
1%
1$
1#
00
1/
1.
1-
1,
1+
1*
04
03
02
01
08
07
06
05
x9
0:
1;
x<
1=
1>
1?
0@
0A
0B
0C
0D
0E
0F
0G
0H
0I
0J
0K
0L
0M
0N
0O
0P
0Q
0R
0S
0T
0U
0Y
0X
0W
0V
$end
#2500
1!
1@
09
1B
14
#5000
0!
0@
19
#7500
1!
1@
09
1L
1I
1H
1G
1E
0B
13
04
0#
0&
0'
0(
#10000
0!
0@
19
#12500
1!
1@
09
0L
1J
0I
0H
1F
1B
1)
14
1#
0%
1&
1'
#15000
0!
0@
19
#17500
1!
1@
09
0J
1H
0E
1C
0B
03
12
04
1%
0'
#20000
0!
0@
19
#22500
1!
1@
09
1L
1I
0G
1B
14
0#
0&
1(
#25000
0!
0@
19
#27500
1!
1@
09
0L
1K
0I
1E
0B
13
04
1#
0$
1&
#30000
0!
0@
19
#32500
1!
1@
09
0H
1B
14
1'
#35000
0!
0@
19
#37500
1!
1@
09
0K
1I
1H
1G
0F
0E
1D
0C
0B
0)
03
11
02
04
1$
0&
0'
0(
#40000
0!
0@
19
#42500
1!
1@
09
0I
0H
0G
1F
1B
1M
1)
14
1&
1'
1(
#45000
0!
0@
19
#47500
1!
1@
09
1Y
1I
1H
0D
0B
0M
18
01
04
0&
0'
#50000
0!
0@
19
#52500
1!
1@
09
1U
1R
1Q
1P
0I
0H
0F
1B
0)
14
0*
0-
0.
0/
1&
1'
#55000
0!
0@
19
#57500
1!
1@
09
1L
1I
1H
1G
1E
0B
13
04
0#
0&
0'
0(
#60000
0!
0@
19
#62500
1!
1@
09
0L
1J
0I
0H
1F
1B
1)
14
1#
0%
1&
1'
#65000
0!
0@
19
#67500
1!
1@
09
0J
1H
0E
1C
0B
03
12
04
1%
0'
#70000
0!
0@
19
#72500
1!
1@
09
1L
1I
0G
1B
14
0#
0&
1(
#75000
0!
0@
19
#77500
1!
1@
09
0L
1K
0I
1E
0B
13
04
1#
0$
1&
#80000
0!
0@
19
#82500
1!
1@
09
0H
1B
14
1'
#85000
0!
0@
19
#87500
1!
1@
09
0K
1I
1H
1G
0F
0E
1D
0C
0B
0)
03
11
02
04
1$
0&
0'
0(
#90000
0!
0@
19
#92500
1!
1@
09
0I
0H
0G
1F
1B
1M
1)
14
1&
1'
1(
#95000
0!
0@
19
#97500
1!
1@
09
1X
0Y
1I
1H
0D
0B
0M
17
08
01
04
0&
0'
#100000
0!
0@
19
#102500
1!
1@
09
0U
1S
0R
0Q
1O
0I
0H
0F
1B
10
0)
14
1*
0,
1-
1.
1&
1'
#105000
0!
0@
19
#107500
1!
1@
09
1L
1I
1H
1G
1E
0B
13
04
0#
0&
0'
0(
#110000
0!
0@
19
#112500
1!
1@
09
0L
1J
0I
0H
1F
1B
1)
14
1#
0%
1&
1'
#115000
0!
0@
19
#117500
1!
1@
09
0J
1H
0E
1C
0B
03
12
04
1%
0'
#120000
0!
0@
19
#122500
1!
1@
09
1L
1I
0G
1B
14
0#
0&
1(
#125000
0!
0@
19
#127500
1!
1@
09
0L
1K
0I
1E
0B
13
04
1#
0$
1&
#130000
0!
0@
19
#132500
1!
1@
09
0H
1B
14
1'
#135000
0!
0@
19
#137500
1!
1@
09
0K
1I
1H
1G
0F
0E
1D
0C
0B
0)
03
11
02
04
1$
0&
0'
0(
#140000
0!
0@
19
#142500
1!
1@
09
0I
0H
0G
1F
1B
1M
1)
14
1&
1'
1(
#145000
0!
0@
19
#147500
1!
1@
09
1Y
1I
1H
0D
0B
1N
0M
18
01
04
0&
0'
#150000
0!
0@
19
#152500
1!
1@
09
0S
1Q
0I
0H
0F
1B
0)
14
1,
0.
1&
1'
#155000
0!
0@
19
#157500
1!
1@
09
1L
1I
1H
1G
1E
0B
13
04
0#
0&
0'
0(
#160000
0!
0@
19
#162500
1!
1@
09
0L
1J
0I
0H
1F
1B
1)
14
1#
0%
1&
1'
#165000
0!
0@
19
#167500
1!
1@
09
0J
1H
0E
1C
0B
03
12
04
1%
0'
#170000
0!
0@
19
#172500
1!
1@
09
1L
1I
0G
1B
14
0#
0&
1(
#175000
0!
0@
19
#177500
1!
1@
09
0L
1K
0I
1E
0B
13
04
1#
0$
1&
#180000
0!
0@
19
#182500
1!
1@
09
0H
1B
14
1'
#185000
0!
0@
19
#187500
1!
1@
09
0K
1I
1H
1G
0F
0E
1D
0C
0B
0)
03
11
02
04
1$
0&
0'
0(
#190000
0!
0@
19
#192500
1!
1@
09
0I
0H
0G
1F
1B
1M
1)
14
1&
1'
1(
#195000
0!
0@
19
#197500
1!
1@
09
0X
1W
0Y
1I
1H
0D
0B
0N
0M
07
16
08
01
04
0&
0'
#200000
0!
0@
19
#202500
1!
1@
09
1U
1R
0P
0I
0H
0F
1B
0)
14
0*
0-
1/
1&
1'
#205000
0!
0@
19
#207500
1!
1@
09
1L
1I
1H
1G
1E
0B
13
04
0#
0&
0'
0(
#210000
0!
0@
19
#212500
1!
1@
09
0L
1J
0I
0H
1F
1B
1)
14
1#
0%
1&
1'
#215000
0!
0@
19
#217500
1!
1@
09
0J
1H
0E
1C
0B
03
12
04
1%
0'
#220000
0!
0@
19
#222500
1!
1@
09
1L
1I
0G
1B
14
0#
0&
1(
#225000
0!
0@
19
#227500
1!
1@
09
0L
1K
0I
1E
0B
13
04
1#
0$
1&
#230000
0!
0@
19
#232500
1!
1@
09
0H
1B
14
1'
#235000
0!
0@
19
#237500
1!
1@
09
0K
1I
1H
1G
0F
0E
1D
0C
0B
0)
03
11
02
04
1$
0&
0'
0(
#240000
0!
0@
19
#242500
1!
1@
09
0I
0H
0G
1F
1B
1M
1)
14
1&
1'
1(
#245000
0!
0@
19
#247500
1!
1@
09
1Y
1I
1H
0D
0B
0M
18
01
04
0&
0'
#250000
0!
0@
19
#252500
1!
1@
09
0U
1T
0R
0I
0H
0F
1B
0)
14
1*
0+
1-
1&
1'
#255000
0!
0@
19
#257500
1!
1@
09
1L
1I
1H
1G
1E
0B
13
04
0#
0&
0'
0(
#260000
0!
0@
19
#262500
1!
1@
09
0L
1J
0I
0H
1F
1B
1)
14
1#
0%
1&
1'
#265000
0!
0@
19
#267500
1!
1@
09
0J
1H
0E
1C
0B
03
12
04
1%
0'
#270000
0!
0@
19
#272500
1!
1@
09
1L
1I
0G
1B
14
0#
0&
1(
#275000
0!
0@
19
#277500
1!
1@
09
0L
1K
0I
1E
0B
13
04
1#
0$
1&
#280000
0!
0@
19
#282500
1!
1@
09
0H
1B
14
1'
#285000
0!
0@
19
#287500
1!
1@
09
0K
1I
1H
1G
0F
0E
1D
0C
0B
0)
03
11
02
04
1$
0&
0'
0(
#290000
0!
0@
19
#292500
1!
1@
09
0I
0H
0G
1F
1B
1M
1)
14
1&
1'
1(
#295000
0!
0@
19
#297500
1!
1@
09
0W
0Y
1I
1H
0D
0B
0M
06
08
01
04
0&
0'
#300000
0!
0@
19
#302500
1!
1@
09
0T
0Q
0O
0I
0H
0F
1B
00
0)
14
1+
1.
1&
1'
#305000
0!
0@
19
#307500
1!
1@
09
1L
1I
1H
1G
1E
0B
13
04
0#
0&
0'
0(
#310000
0!
0@
19
#312500
1!
1@
09
0L
1J
0I
0H
1F
1B
1)
14
1#
0%
1&
1'
#315000
0!
0@
19
#317500
1!
1@
09
0J
1H
0E
1C
0B
03
12
04
1%
0'
#320000
0!
0@
19
#322500
1!
1@
09
1L
1I
0G
1B
14
0#
0&
1(
#325000
0!
0@
19
#327500
1!
1@
09
0L
1K
0I
1E
0B
13
04
1#
0$
1&
#330000
0!
0@
19
#332500
1!
1@
09
0H
1B
14
1'
#335000
0!
0@
19
#337500
1!
1@
09
0K
1I
1H
1G
0F
0E
1D
0C
0B
0)
03
11
02
04
1$
0&
0'
0(
#340000
0!
0@
19
#342500
1!
1@
09
0I
0H
0G
1F
1B
1M
1)
14
1&
1'
1(
#345000
0!
0@
19
#347500
1!
1@
09
1Y
1I
1H
0D
0B
0M
18
01
04
0&
0'
#350000
0!
0@
19
#352500
1!
1@
09
1U
1R
1Q
1P
0I
0H
0F
1B
0)
14
0*
0-
0.
0/
1&
1'
#355000
0!
0@
19
#357500
1!
1@
09
1L
1I
1H
1G
1E
0B
13
04
0#
0&
0'
0(
#360000
0!
0@
19
#362500
1!
1@
09
0L
1J
0I
0H
1F
1B
1)
14
1#
0%
1&
1'
#365000
0!
0@
19
#367500
1!
1@
09
0J
1H
0E
1C
0B
03
12
04
1%
0'
#370000
0!
0@
19
#372500
1!
1@
09
1L
1I
0G
1B
14
0#
0&
1(
#375000
0!
0@
19
#377500
1!
1@
09
0L
1K
0I
1E
0B
13
04
1#
0$
1&
#380000
0!
0@
19
#382500
1!
1@
09
0H
1B
14
1'
#385000
0!
0@
19
#387500
1!
1@
09
0K
1I
1H
1G
0F
0E
1D
0C
0B
0)
03
11
02
04
1$
0&
0'
0(
#390000
0!
0@
19
#392500
1!
1@
09
0I
0H
0G
1F
1B
1M
1)
14
1&
1'
1(
#395000
0!
0@
19
#397500
1!
1@
09
1X
0Y
1I
1H
0D
0B
0M
17
08
01
04
0&
0'
#400000
0!
0@
19
#402500
1!
1@
09
0U
1S
0R
0Q
1O
0I
0H
0F
1B
10
0)
14
1*
0,
1-
1.
1&
1'
#405000
0!
0@
19
#407500
1!
1@
09
1L
1I
1H
1G
1E
0B
13
04
0#
0&
0'
0(
#410000
0!
0@
19
#412500
1!
1@
09
0L
1J
0I
0H
1F
1B
1)
14
1#
0%
1&
1'
#415000
0!
0@
19
#417500
1!
1@
09
0J
1H
0E
1C
0B
03
12
04
1%
0'
#420000
0!
0@
19
#422500
1!
1@
09
1L
1I
0G
1B
14
0#
0&
1(
#425000
0!
0@
19
#427500
1!
1@
09
0L
1K
0I
1E
0B
13
04
1#
0$
1&
#430000
0!
0@
19
#432500
1!
1@
09
0H
1B
14
1'
#435000
0!
0@
19
#437500
1!
1@
09
0K
1I
1H
1G
0F
0E
1D
0C
0B
0)
03
11
02
04
1$
0&
0'
0(
#440000
0!
0@
19
#442500
1!
1@
09
0I
0H
0G
1F
1B
1M
1)
14
1&
1'
1(
#445000
0!
0@
19
#447500
1!
1@
09
1Y
1I
1H
0D
0B
1N
0M
18
01
04
0&
0'
#450000
0!
0@
19
#452500
1!
1@
09
0S
1Q
0I
0H
0F
1B
0)
14
1,
0.
1&
1'
#455000
0!
0@
19
#457500
1!
1@
09
1L
1I
1H
1G
1E
0B
13
04
0#
0&
0'
0(
#460000
0!
0@
19
#462500
1!
1@
09
0L
1J
0I
0H
1F
1B
1)
14
1#
0%
1&
1'
#465000
0!
0@
19
#467500
1!
1@
09
0J
1H
0E
1C
0B
03
12
04
1%
0'
#470000
0!
0@
19
#472500
1!
1@
09
1L
1I
0G
1B
14
0#
0&
1(
#475000
0!
0@
19
#477500
1!
1@
09
0L
1K
0I
1E
0B
13
04
1#
0$
1&
#480000
0!
0@
19
#482500
1!
1@
09
0H
1B
14
1'
#485000
0!
0@
19
#487500
1!
1@
09
0K
1I
1H
1G
0F
0E
1D
0C
0B
0)
03
11
02
04
1$
0&
0'
0(
#490000
0!
0@
19
#492500
1!
1@
09
0I
0H
0G
1F
1B
1M
1)
14
1&
1'
1(
#495000
0!
0@
19
#497500
1!
1@
09
0X
1W
0Y
1I
1H
0D
0B
0N
0M
07
16
08
01
04
0&
0'
#500000
0!
0@
19
#502500
1!
1@
09
1U
1R
0P
0I
0H
0F
1B
0)
14
0*
0-
1/
1&
1'
#505000
0!
0@
19
#507500
1!
1@
09
1L
1I
1H
1G
1E
0B
13
04
0#
0&
0'
0(
#510000
0!
0@
19
#512500
1!
1@
09
0L
1J
0I
0H
1F
1B
1)
14
1#
0%
1&
1'
#515000
0!
0@
19
#517500
1!
1@
09
0J
1H
0E
1C
0B
03
12
04
1%
0'
#520000
0!
0@
19
#522500
1!
1@
09
1L
1I
0G
1B
14
0#
0&
1(
#525000
0!
0@
19
#527500
1!
1@
09
0L
1K
0I
1E
0B
13
04
1#
0$
1&
#530000
0!
0@
19
#532500
1!
1@
09
0H
1B
14
1'
#535000
0!
0@
19
#537500
1!
1@
09
0K
1I
1H
1G
0F
0E
1D
0C
0B
0)
03
11
02
04
1$
0&
0'
0(
#540000
0!
0@
19
#542500
1!
1@
09
0I
0H
0G
1F
1B
1M
1)
14
1&
1'
1(
#545000
0!
0@
19
#547500
1!
1@
09
1Y
1I
1H
0D
0B
0M
18
01
04
0&
0'
#550000
0!
0@
19
#552500
1!
1@
09
0U
1T
0R
0I
0H
0F
1B
0)
14
1*
0+
1-
1&
1'
#555000
0!
0@
19
#557500
1!
1@
09
1L
1I
1H
1G
1E
0B
13
04
0#
0&
0'
0(
#560000
0!
0@
19
#562500
1!
1@
09
0L
1J
0I
0H
1F
1B
1)
14
1#
0%
1&
1'
#565000
0!
0@
19
#567500
1!
1@
09
0J
1H
0E
1C
0B
03
12
04
1%
0'
#570000
0!
0@
19
#572500
1!
1@
09
1L
1I
0G
1B
14
0#
0&
1(
#575000
0!
0@
19
#577500
1!
1@
09
0L
1K
0I
1E
0B
13
04
1#
0$
1&
#580000
0!
0@
19
#582500
1!
1@
09
0H
1B
14
1'
#585000
0!
0@
19
#587500
1!
1@
09
0K
1I
1H
1G
0F
0E
1D
0C
0B
0)
03
11
02
04
1$
0&
0'
0(
#590000
0!
0@
19
#592500
1!
1@
09
0I
0H
0G
1F
1B
1M
1)
14
1&
1'
1(
#595000
0!
0@
19
#597500
1!
1@
09
0W
0Y
1I
1H
0D
0B
0M
06
08
01
04
0&
0'
#600000
0!
0@
19
#602500
1!
1@
09
0T
0Q
0O
0I
0H
0F
1B
00
0)
14
1+
1.
1&
1'
#605000
0!
0@
19
#607500
1!
1@
09
1L
1I
1H
1G
1E
0B
13
04
0#
0&
0'
0(
#610000
0!
0@
19
#612500
1!
1@
09
0L
1J
0I
0H
1F
1B
1)
14
1#
0%
1&
1'
#615000
0!
0@
19
#617500
1!
1@
09
0J
1H
0E
1C
0B
03
12
04
1%
0'
#620000
0!
0@
19
#622500
1!
1@
09
1L
1I
0G
1B
14
0#
0&
1(
#625000
0!
0@
19
#627500
1!
1@
09
0L
1K
0I
1E
0B
13
04
1#
0$
1&
#630000
0!
0@
19
#632500
1!
1@
09
0H
1B
14
1'
#635000
0!
0@
19
#637500
1!
1@
09
0K
1I
1H
1G
0F
0E
1D
0C
0B
0)
03
11
02
04
1$
0&
0'
0(
#640000
0!
0@
19
#642500
1!
1@
09
0I
0H
0G
1F
1B
1M
1)
14
1&
1'
1(
#645000
0!
0@
19
#647500
1!
1@
09
1Y
1I
1H
0D
0B
0M
18
01
04
0&
0'
#650000
0!
0@
19
#652500
1!
1@
09
1U
1R
1Q
1P
0I
0H
0F
1B
0)
14
0*
0-
0.
0/
1&
1'
#655000
0!
0@
19
#657500
1!
1@
09
1L
1I
1H
1G
1E
0B
13
04
0#
0&
0'
0(
#660000
0!
0@
19
#662500
1!
1@
09
0L
1J
0I
0H
1F
1B
1)
14
1#
0%
1&
1'
#665000
0!
0@
19
#667500
1!
1@
09
0J
1H
0E
1C
0B
03
12
04
1%
0'
#670000
0!
0@
19
#672500
1!
1@
09
1L
1I
0G
1B
14
0#
0&
1(
#675000
0!
0@
19
#677500
1!
1@
09
0L
1K
0I
1E
0B
13
04
1#
0$
1&
#680000
0!
0@
19
#682500
1!
1@
09
0H
1B
14
1'
#685000
0!
0@
19
#687500
1!
1@
09
0K
1I
1H
1G
0F
0E
1D
0C
0B
0)
03
11
02
04
1$
0&
0'
0(
#690000
0!
0@
19
#692500
1!
1@
09
0I
0H
0G
1F
1B
1M
1)
14
1&
1'
1(
#695000
0!
0@
19
#697500
1!
1@
09
1X
0Y
1I
1H
0D
0B
0M
17
08
01
04
0&
0'
#700000
0!
0@
19
#702500
1!
1@
09
0U
1S
0R
0Q
1O
0I
0H
0F
1B
10
0)
14
1*
0,
1-
1.
1&
1'
#705000
0!
0@
19
#707500
1!
1@
09
1L
1I
1H
1G
1E
0B
13
04
0#
0&
0'
0(
#710000
0!
0@
19
#712500
1!
1@
09
0L
1J
0I
0H
1F
1B
1)
14
1#
0%
1&
1'
#715000
0!
0@
19
#717500
1!
1@
09
0J
1H
0E
1C
0B
03
12
04
1%
0'
#720000
1"
0!
1A
0@
19
0X
0C
07
02
#722500
1!
1@
09
#725000
0!
0@
19
#727500
1!
1@
09
#730000
0!
0@
19
#732500
1!
1@
09
#735000
0!
0@
19
#737500
1!
1@
09
#740000
0!
0@
19
#742500
1!
1@
09
#745000
0!
0@
19
#747500
1!
1@
09
#750000
0"
0!
0A
0@
19
#752500
1!
1@
09
0S
0P
0O
0H
0G
0F
1B
00
0)
14
1,
1/
1'
1(
#755000
0!
0@
19
#757500
1!
1@
09
1L
1I
1H
1G
1E
0B
13
04
0#
0&
0'
0(
#760000
0!
0@
19
#762500
1!
1@
09
0L
1J
0I
0H
1F
1B
1)
14
1#
0%
1&
1'
#765000
0!
0@
19
#767500
1!
1@
09
0J
1H
0E
1C
0B
03
12
04
1%
0'
#770000
0!
0@
19
#772500
1!
1@
09
1L
1I
0G
1B
14
0#
0&
1(
#775000
0!
0@
19
#777500
1!
1@
09
0L
1K
0I
1E
0B
13
04
1#
0$
1&
#780000
0!
0@
19
#782500
1!
1@
09
0H
1B
14
1'
#785000
0!
0@
19
#787500
1!
1@
09
0K
1I
1H
1G
0F
0E
1D
0C
0B
0)
03
11
02
04
1$
0&
0'
0(
#790000
0!
0@
19
#792500
1!
1@
09
0I
0H
0G
1F
1B
1M
1)
14
1&
1'
1(
#795000
0!
0@
19
#797500
1!
1@
09
1Y
1I
1H
0D
0B
0M
18
01
04
0&
0'
#800000
0!
0@
19
#802500
1!
1@
09
1U
1R
1Q
1P
0I
0H
0F
1B
0)
14
0*
0-
0.
0/
1&
1'
#805000
0!
0@
19
#807500
1!
1@
09
1L
1I
1H
1G
1E
0B
13
04
0#
0&
0'
0(
#810000
0!
0@
19
#812500
1!
1@
09
0L
1J
0I
0H
1F
1B
1)
14
1#
0%
1&
1'
#815000
0!
0@
19
#817500
1!
1@
09
0J
1H
0E
1C
0B
03
12
04
1%
0'
#820000
0!
0@
19
#822500
1!
1@
09
1L
1I
0G
1B
14
0#
0&
1(
#825000
0!
0@
19
#827500
1!
1@
09
0L
1K
0I
1E
0B
13
04
1#
0$
1&
#830000
0!
0@
19
#832500
1!
1@
09
0H
1B
14
1'
#835000
0!
0@
19
#837500
1!
1@
09
0K
1I
1H
1G
0F
0E
1D
0C
0B
0)
03
11
02
04
1$
0&
0'
0(
#840000
0!
0@
19
#842500
1!
1@
09
0I
0H
0G
1F
1B
1M
1)
14
1&
1'
1(
#845000
0!
0@
19
#847500
1!
1@
09
1X
0Y
1I
1H
0D
0B
0M
17
08
01
04
0&
0'
#850000
0!
0@
19
#852500
1!
1@
09
0U
1S
0R
0Q
1O
0I
0H
0F
1B
10
0)
14
1*
0,
1-
1.
1&
1'
#855000
0!
0@
19
#857500
1!
1@
09
1L
1I
1H
1G
1E
0B
13
04
0#
0&
0'
0(
#860000
0!
0@
19
#862500
1!
1@
09
0L
1J
0I
0H
1F
1B
1)
14
1#
0%
1&
1'
#865000
0!
0@
19
#867500
1!
1@
09
0J
1H
0E
1C
0B
03
12
04
1%
0'
#870000
0!
0@
19
#872500
1!
1@
09
1L
1I
0G
1B
14
0#
0&
1(
#875000
0!
0@
19
#877500
1!
1@
09
0L
1K
0I
1E
0B
13
04
1#
0$
1&
#880000
0!
0@
19
#882500
1!
1@
09
0H
1B
14
1'
#885000
0!
0@
19
#887500
1!
1@
09
0K
1I
1H
1G
0F
0E
1D
0C
0B
0)
03
11
02
04
1$
0&
0'
0(
#890000
0!
0@
19
#892500
1!
1@
09
0I
0H
0G
1F
1B
1M
1)
14
1&
1'
1(
#895000
0!
0@
19
#897500
1!
1@
09
1Y
1I
1H
0D
0B
1N
0M
18
01
04
0&
0'
#900000
0!
0@
19
#902500
1!
1@
09
0S
1Q
0I
0H
0F
1B
0)
14
1,
0.
1&
1'
#905000
0!
0@
19
#907500
1!
1@
09
1L
1I
1H
1G
1E
0B
13
04
0#
0&
0'
0(
#910000
0!
0@
19
#912500
1!
1@
09
0L
1J
0I
0H
1F
1B
1)
14
1#
0%
1&
1'
#915000
0!
0@
19
#917500
1!
1@
09
0J
1H
0E
1C
0B
03
12
04
1%
0'
#920000
0!
0@
19
#922500
1!
1@
09
1L
1I
0G
1B
14
0#
0&
1(
#925000
0!
0@
19
#927500
1!
1@
09
0L
1K
0I
1E
0B
13
04
1#
0$
1&
#930000
0!
0@
19
#932500
1!
1@
09
0H
1B
14
1'
#935000
0!
0@
19
#937500
1!
1@
09
0K
1I
1H
1G
0F
0E
1D
0C
0B
0)
03
11
02
04
1$
0&
0'
0(
#940000
0!
0@
19
#942500
1!
1@
09
0I
0H
0G
1F
1B
1M
1)
14
1&
1'
1(
#945000
0!
0@
19
#947500
1!
1@
09
0X
1W
0Y
1I
1H
0D
0B
0N
0M
07
16
08
01
04
0&
0'
#950000
0!
0@
19
#952500
1!
1@
09
1U
1R
0P
0I
0H
0F
1B
0)
14
0*
0-
1/
1&
1'
#955000
0!
0@
19
#957500
1!
1@
09
1L
1I
1H
1G
1E
0B
13
04
0#
0&
0'
0(
#960000
0!
0@
19
#962500
1!
1@
09
0L
1J
0I
0H
1F
1B
1)
14
1#
0%
1&
1'
#965000
0!
0@
19
#967500
1!
1@
09
0J
1H
0E
1C
0B
03
12
04
1%
0'
#970000
0!
0@
19
#972500
1!
1@
09
1L
1I
0G
1B
14
0#
0&
1(
#975000
0!
0@
19
#977500
1!
1@
09
0L
1K
0I
1E
0B
13
04
1#
0$
1&
#980000
0!
0@
19
#982500
1!
1@
09
0H
1B
14
1'
#985000
0!
0@
19
#987500
1!
1@
09
0K
1I
1H
1G
0F
0E
1D
0C
0B
0)
03
11
02
04
1$
0&
0'
0(
#990000
0!
0@
19
#992500
1!
1@
09
0I
0H
0G
1F
1B
1M
1)
14
1&
1'
1(
#995000
0!
0@
19
#997500
1!
1@
09
1Y
1I
1H
0D
0B
0M
18
01
04
0&
0'
