DigitalLife/simulation/qsim/DigitalLife.msim.vcd
$comment
	File created using the following command:
		vcd file DigitalLife.msim.vcd -direction
$end
$date
	Tue Mar 17 22:51:59 2020
$end
$version
	ModelSim Version 10.1d
$end
$timescale
	1ps
$end
$scope module DigitalLife_vlg_vec_tst $end
$var reg 1 ! clk $end
$var reg 1 " rst $end
$var wire 1 # even_out [3] $end
$var wire 1 $ even_out [2] $end
$var wire 1 % even_out [1] $end
$var wire 1 & even_out [0] $end
$var wire 1 ' natural_out [6] $end
$var wire 1 ( natural_out [5] $end
$var wire 1 ) natural_out [4] $end
$var wire 1 * natural_out [3] $end
$var wire 1 + natural_out [2] $end
$var wire 1 , natural_out [1] $end
$var wire 1 - natural_out [0] $end
$var wire 1 . natural_out_test [3] $end
$var wire 1 / natural_out_test [2] $end
$var wire 1 0 natural_out_test [1] $end
$var wire 1 1 natural_out_test [0] $end
$var wire 1 2 odd_out [3] $end
$var wire 1 3 odd_out [2] $end
$var wire 1 4 odd_out [1] $end
$var wire 1 5 odd_out [0] $end
$var wire 1 6 sampler $end
$scope module i1 $end
$var wire 1 7 gnd $end
$var wire 1 8 vcc $end
$var wire 1 9 unknown $end
$var tri1 1 : devclrn $end
$var tri1 1 ; devpor $end
$var tri1 1 < devoe $end
$var wire 1 = clk~combout $end
$var wire 1 > rst~combout $end
$var wire 1 ? Mux6~0_combout $end
$var wire 1 @ Mux5~0_combout $end
$var wire 1 A Mux4~0_combout $end
$var wire 1 B Mux3~0_combout $end
$var wire 1 C Mux2~0_combout $end
$var wire 1 D Mux1~0_combout $end
$var wire 1 E Mux0~0_combout $end
$var wire 1 F natural_seq [3] $end
$var wire 1 G natural_seq [2] $end
$var wire 1 H natural_seq [1] $end
$var wire 1 I natural_seq [0] $end
$var wire 1 J even_seq [3] $end
$var wire 1 K even_seq [2] $end
$var wire 1 L even_seq [1] $end
$var wire 1 M even_seq [0] $end
$upscope $end
$upscope $end
$enddefinitions $end
#0
$dumpvars
0!
0"
0&
0%
0$
0#
0-
1,
1+
1*
1)
1(
1'
01
00
0/
0.
15
04
03
02
x6
07
18
x9
1:
1;
1<
0=
0>
0?
0@
0A
0B
0C
0D
0E
0I
0H
0G
0F
zM
0L
0K
0J
$end
#20000
1!
1=
06
1L
1I
1E
1B
1A
1@
1%
14
11
0'
0*
0+
0,
#40000
0!
0=
16
#60000
1!
1=
06
0L
1K
1H
0I
0E
1C
0B
0A
1?
0%
04
1$
13
10
01
1-
1'
0)
1*
1+
#80000
0!
0=
16
#100000
1!
1=
06
1L
1I
0C
1A
1%
14
11
1)
0+
#120000
0!
0=
16
#140000
1!
1=
06
0L
1J
0K
0H
1G
0I
1E
1B
0@
0%
04
1#
12
0$
03
00
1/
01
0'
0*
1,
#150000
1"
1>
16
0J
0G
0E
0B
0A
0?
0#
02
0/
0-
1'
1*
1+
#160000
0!
0=
06
#180000
1!
1=
16
#190000
0"
0>
06
#200000
0!
0=
16
#220000
1!
1=
06
1L
1I
1E
1B
1A
1@
1%
14
11
0'
0*
0+
0,
#240000
0!
0=
16
#260000
1"
1!
1>
1=
06
0L
0I
0E
0B
0A
0@
0%
04
01
1'
1*
1+
1,
#280000
0!
0=
16
#300000
1!
1=
06
#320000
0!
0=
16
#340000
1!
1=
06
#360000
0!
0=
16
#380000
1!
1=
06
#400000
0!
0=
16
#420000
1!
1=
06
#430000
0"
0>
16
#440000
0!
0=
06
#460000
1!
1=
16
1L
1I
1E
1B
1A
1@
1%
14
11
0'
0*
0+
0,
#480000
0!
0=
06
#500000
1!
1=
16
0L
1K
1H
0I
0E
1C
0B
0A
1?
0%
04
1$
13
10
01
1-
1'
0)
1*
1+
#520000
0!
0=
06
#540000
1!
1=
16
1L
1I
0C
1A
1%
14
11
1)
0+
#560000
0!
0=
06
#580000
1!
1=
16
0L
1J
0K
0H
1G
0I
1E
1B
0@
0%
04
1#
12
0$
03
00
1/
01
0'
0*
1,
#600000
0!
0=
06
#620000
1!
1=
16
0J
1I
0E
1D
0B
0#
02
11
1'
0(
1*
#640000
0!
0=
06
#660000
1!
1=
16
1L
1H
0I
0A
1%
14
10
01
1+
#680000
0!
0=
06
#700000
1!
1=
16
0L
1K
1I
0D
1B
1A
1@
0?
0%
04
1$
13
11
0-
1(
0*
0+
0,
#720000
0!
0=
06
#740000
1!
1=
16
1L
0H
1F
0G
0I
0B
0A
0@
1?
1%
14
00
1.
0/
01
1-
1*
1+
1,
#760000
0!
0=
06
#780000
1!
1=
16
0L
1J
0K
1I
1B
1A
0%
04
1#
12
0$
03
11
0*
0+
#800000
0!
0=
06
#820000
1!
1=
16
0J
0F
0I
0B
0A
0?
0#
02
0.
01
0-
1*
1+
#840000
0!
0=
06
#860000
1!
1=
16
1L
1I
1E
1B
1A
1@
1%
14
11
0'
0*
0+
0,
#880000
0!
0=
06
#900000
1!
1=
16
0L
1K
1H
0I
0E
1C
0B
0A
1?
0%
04
1$
13
10
01
1-
1'
0)
1*
1+
#920000
0!
0=
06
#940000
1!
1=
16
1L
1I
0C
1A
1%
14
11
1)
0+
#960000
0!
0=
06
#980000
1!
1=
16
0L
1J
0K
0H
1G
0I
1E
1B
0@
0%
04
1#
12
0$
03
00
1/
01
0'
0*
1,
