HW4_Password/DigitalLife/simulation/qsim/DigitalLife.msim.vcd
$comment
	File created using the following command:
		vcd file DigitalLife.msim.vcd -direction
$end
$date
	Thu Mar 19 17:50:40 2020
$end
$version
	ModelSim Version 10.1d
$end
$timescale
	1ps
$end
$scope module DigitalLife_vlg_vec_tst $end
$var reg 1 ! clock $end
$var reg 1 " reset $end
$var wire 1 # even_out [3] $end
$var wire 1 $ even_out [2] $end
$var wire 1 % even_out [1] $end
$var wire 1 & even_out [0] $end
$var wire 1 ' even_out_encoded [6] $end
$var wire 1 ( even_out_encoded [5] $end
$var wire 1 ) even_out_encoded [4] $end
$var wire 1 * even_out_encoded [3] $end
$var wire 1 + even_out_encoded [2] $end
$var wire 1 , even_out_encoded [1] $end
$var wire 1 - even_out_encoded [0] $end
$var wire 1 . natural_out [3] $end
$var wire 1 / natural_out [2] $end
$var wire 1 0 natural_out [1] $end
$var wire 1 1 natural_out [0] $end
$var wire 1 2 natural_out_encoded [6] $end
$var wire 1 3 natural_out_encoded [5] $end
$var wire 1 4 natural_out_encoded [4] $end
$var wire 1 5 natural_out_encoded [3] $end
$var wire 1 6 natural_out_encoded [2] $end
$var wire 1 7 natural_out_encoded [1] $end
$var wire 1 8 natural_out_encoded [0] $end
$var wire 1 9 natural_out_hex [3] $end
$var wire 1 : natural_out_hex [2] $end
$var wire 1 ; natural_out_hex [1] $end
$var wire 1 < natural_out_hex [0] $end
$var wire 1 = odd_out [3] $end
$var wire 1 > odd_out [2] $end
$var wire 1 ? odd_out [1] $end
$var wire 1 @ odd_out [0] $end
$var wire 1 A odd_out_encoded [6] $end
$var wire 1 B odd_out_encoded [5] $end
$var wire 1 C odd_out_encoded [4] $end
$var wire 1 D odd_out_encoded [3] $end
$var wire 1 E odd_out_encoded [2] $end
$var wire 1 F odd_out_encoded [1] $end
$var wire 1 G odd_out_encoded [0] $end
$var wire 1 H sampler $end
$scope module i1 $end
$var wire 1 I gnd $end
$var wire 1 J vcc $end
$var wire 1 K unknown $end
$var tri1 1 L devclrn $end
$var tri1 1 M devpor $end
$var tri1 1 N devoe $end
$var wire 1 O clock~combout $end
$var wire 1 P reset~combout $end
$var wire 1 Q Add4~0_combout $end
$var wire 1 R Add4~2 $end
$var wire 1 S Add4~155_combout $end
$var wire 1 T Add4~157 $end
$var wire 1 U Add4~157COUT1_186 $end
$var wire 1 V Add4~150_combout $end
$var wire 1 W Add4~152 $end
$var wire 1 X Add4~152COUT1_188 $end
$var wire 1 Y Add4~145_combout $end
$var wire 1 Z Add4~147 $end
$var wire 1 [ Add4~147COUT1_190 $end
$var wire 1 \ Add4~140_combout $end
$var wire 1 ] Add4~142 $end
$var wire 1 ^ Add4~142COUT1_192 $end
$var wire 1 _ Add4~135_combout $end
$var wire 1 ` Add4~137 $end
$var wire 1 a Add4~130_combout $end
$var wire 1 b Add4~132 $end
$var wire 1 c Add4~132COUT1_194 $end
$var wire 1 d Add4~125_combout $end
$var wire 1 e Add4~127 $end
$var wire 1 f Add4~127COUT1_196 $end
$var wire 1 g Add4~120_combout $end
$var wire 1 h Equal0~8 $end
$var wire 1 i Equal0~9 $end
$var wire 1 j Add4~122 $end
$var wire 1 k Add4~122COUT1_198 $end
$var wire 1 l Add4~105_combout $end
$var wire 1 m Add4~107 $end
$var wire 1 n Add4~107COUT1_200 $end
$var wire 1 o Add4~100_combout $end
$var wire 1 p Add4~102 $end
$var wire 1 q Add4~95_combout $end
$var wire 1 r Add4~97 $end
$var wire 1 s Add4~97COUT1_202 $end
$var wire 1 t Add4~90_combout $end
$var wire 1 u Add4~92 $end
$var wire 1 v Add4~92COUT1_204 $end
$var wire 1 w Add4~115_combout $end
$var wire 1 x Equal0~6 $end
$var wire 1 y Add4~117 $end
$var wire 1 z Add4~117COUT1_206 $end
$var wire 1 { Add4~112 $end
$var wire 1 | Add4~112COUT1_208 $end
$var wire 1 } Add4~85_combout $end
$var wire 1 ~ Add4~87 $end
$var wire 1 !! Add4~80_combout $end
$var wire 1 "! Equal0~5 $end
$var wire 1 #! Add4~110_combout $end
$var wire 1 $! Equal0~7 $end
$var wire 1 %! Add4~82 $end
$var wire 1 &! Add4~82COUT1_210 $end
$var wire 1 '! Add4~75_combout $end
$var wire 1 (! Add4~77 $end
$var wire 1 )! Add4~77COUT1_212 $end
$var wire 1 *! Add4~70_combout $end
$var wire 1 +! Add4~72 $end
$var wire 1 ,! Add4~72COUT1_214 $end
$var wire 1 -! Add4~65_combout $end
$var wire 1 .! Add4~67 $end
$var wire 1 /! Add4~67COUT1_216 $end
$var wire 1 0! Add4~60_combout $end
$var wire 1 1! Add4~62 $end
$var wire 1 2! Add4~55_combout $end
$var wire 1 3! Add4~57 $end
$var wire 1 4! Add4~57COUT1_218 $end
$var wire 1 5! Add4~50_combout $end
$var wire 1 6! Add4~52 $end
$var wire 1 7! Add4~52COUT1_220 $end
$var wire 1 8! Add4~45_combout $end
$var wire 1 9! Add4~47 $end
$var wire 1 :! Add4~47COUT1_222 $end
$var wire 1 ;! Add4~40_combout $end
$var wire 1 <! Equal0~2 $end
$var wire 1 =! Add4~42 $end
$var wire 1 >! Add4~42COUT1_224 $end
$var wire 1 ?! Add4~35_combout $end
$var wire 1 @! Add4~37 $end
$var wire 1 A! Add4~30_combout $end
$var wire 1 B! Add4~32 $end
$var wire 1 C! Add4~32COUT1_226 $end
$var wire 1 D! Add4~25_combout $end
$var wire 1 E! Add4~27 $end
$var wire 1 F! Add4~27COUT1_228 $end
$var wire 1 G! Add4~20_combout $end
$var wire 1 H! Equal0~1 $end
$var wire 1 I! Add4~22 $end
$var wire 1 J! Add4~22COUT1_230 $end
$var wire 1 K! Add4~15_combout $end
$var wire 1 L! Add4~17 $end
$var wire 1 M! Add4~17COUT1_232 $end
$var wire 1 N! Add4~10_combout $end
$var wire 1 O! Add4~12 $end
$var wire 1 P! Add4~5_combout $end
$var wire 1 Q! Equal0~0 $end
$var wire 1 R! Equal0~3 $end
$var wire 1 S! Equal0~4_combout $end
$var wire 1 T! Equal0~10_combout $end
$var wire 1 U! natural_out_hex[0]~reg0_regout $end
$var wire 1 V! natural_out_hex[1]~reg0_regout $end
$var wire 1 W! natural_out_hex[2]~reg0_regout $end
$var wire 1 X! natural_seq_hex[1]~2_combout $end
$var wire 1 Y! natural_out_hex[3]~reg0_regout $end
$var wire 1 Z! natural_out[0]~reg0_regout $end
$var wire 1 [! natural_out[1]~reg0_regout $end
$var wire 1 \! natural_out[2]~reg0_regout $end
$var wire 1 ]! natural_out[3]~reg0_regout $end
$var wire 1 ^! even_out[1]~reg0_regout $end
$var wire 1 _! even_out[2]~reg0_regout $end
$var wire 1 `! even_out[3]~reg0_regout $end
$var wire 1 a! odd_out[1]~reg0_regout $end
$var wire 1 b! odd_out[2]~reg0_regout $end
$var wire 1 c! odd_out[3]~reg0_regout $end
$var wire 1 d! natural_out_encoded[0]~reg0_regout $end
$var wire 1 e! Mux5~0_combout $end
$var wire 1 f! natural_out_encoded[1]~reg0_regout $end
$var wire 1 g! Mux4~0_combout $end
$var wire 1 h! natural_out_encoded[2]~reg0_regout $end
$var wire 1 i! Mux3~0_combout $end
$var wire 1 j! natural_out_encoded[3]~reg0_regout $end
$var wire 1 k! Mux2~0_combout $end
$var wire 1 l! natural_out_encoded[4]~reg0_regout $end
$var wire 1 m! Mux1~0_combout $end
$var wire 1 n! natural_out_encoded[5]~reg0_regout $end
$var wire 1 o! Mux0~0_combout $end
$var wire 1 p! natural_out_encoded[6]~reg0_regout $end
$var wire 1 q! even_out_encoded[0]~reg0_regout $end
$var wire 1 r! Mux14~0_combout $end
$var wire 1 s! even_out_encoded[1]~reg0_regout $end
$var wire 1 t! Mux12~0_combout $end
$var wire 1 u! even_out_encoded[2]~reg0_regout $end
$var wire 1 v! even_out_encoded[3]~reg0_regout $end
$var wire 1 w! even_out_encoded[4]~reg0_regout $end
$var wire 1 x! even_out_encoded[5]~reg0_regout $end
$var wire 1 y! even_out_encoded[6]~reg0_regout $end
$var wire 1 z! odd_out_encoded[0]~reg0_regout $end
$var wire 1 {! odd_out_encoded[1]~reg0_regout $end
$var wire 1 |! Mux10~0 $end
$var wire 1 }! odd_out_encoded[3]~reg0_regout $end
$var wire 1 ~! odd_out_encoded[4]~reg0_regout $end
$var wire 1 !" odd_out_encoded[5]~reg0_regout $end
$var wire 1 "" Mux15~0 $end
$var wire 1 #" odd_out_encoded[6]~reg0_regout $end
$var wire 1 $" natural_seq [3] $end
$var wire 1 %" natural_seq [2] $end
$var wire 1 &" natural_seq [1] $end
$var wire 1 '" natural_seq [0] $end
$var wire 1 (" even_seq [3] $end
$var wire 1 )" even_seq [2] $end
$var wire 1 *" even_seq [1] $end
$var wire 1 +" even_seq [0] $end
$var wire 1 ," natural_seq_hex [3] $end
$var wire 1 -" natural_seq_hex [2] $end
$var wire 1 ." natural_seq_hex [1] $end
$var wire 1 /" natural_seq_hex [0] $end
$var wire 1 0" clock_cycle [31] $end
$var wire 1 1" clock_cycle [30] $end
$var wire 1 2" clock_cycle [29] $end
$var wire 1 3" clock_cycle [28] $end
$var wire 1 4" clock_cycle [27] $end
$var wire 1 5" clock_cycle [26] $end
$var wire 1 6" clock_cycle [25] $end
$var wire 1 7" clock_cycle [24] $end
$var wire 1 8" clock_cycle [23] $end
$var wire 1 9" clock_cycle [22] $end
$var wire 1 :" clock_cycle [21] $end
$var wire 1 ;" clock_cycle [20] $end
$var wire 1 <" clock_cycle [19] $end
$var wire 1 =" clock_cycle [18] $end
$var wire 1 >" clock_cycle [17] $end
$var wire 1 ?" clock_cycle [16] $end
$var wire 1 @" clock_cycle [15] $end
$var wire 1 A" clock_cycle [14] $end
$var wire 1 B" clock_cycle [13] $end
$var wire 1 C" clock_cycle [12] $end
$var wire 1 D" clock_cycle [11] $end
$var wire 1 E" clock_cycle [10] $end
$var wire 1 F" clock_cycle [9] $end
$var wire 1 G" clock_cycle [8] $end
$var wire 1 H" clock_cycle [7] $end
$var wire 1 I" clock_cycle [6] $end
$var wire 1 J" clock_cycle [5] $end
$var wire 1 K" clock_cycle [4] $end
$var wire 1 L" clock_cycle [3] $end
$var wire 1 M" clock_cycle [2] $end
$var wire 1 N" clock_cycle [1] $end
$var wire 1 O" clock_cycle [0] $end
$upscope $end
$upscope $end
$enddefinitions $end
#0
$dumpvars
0!
0"
0&
0%
0$
0#
0-
0,
0+
0*
0)
0(
0'
01
00
0/
0.
08
07
06
05
04
03
02
0<
0;
0:
09
1@
0?
0>
0=
0G
0F
0E
0D
0C
0B
0A
xH
0I
1J
xK
1L
1M
1N
0O
0P
1Q
0R
0S
1T
1U
0V
0W
0X
0Y
1Z
1[
0\
0]
0^
0_
1`
0a
0b
0c
0d
1e
1f
0g
1h
1i
0j
0k
0l
1m
1n
0o
0p
0q
1r
1s
0t
0u
0v
0w
1x
1y
1z
0{
0|
0}
1~
0!!
1"!
0#!
1$!
0%!
0&!
0'!
1(!
1)!
0*!
0+!
0,!
0-!
1.!
1/!
00!
01!
02!
13!
14!
05!
06!
07!
08!
19!
1:!
0;!
1<!
0=!
0>!
0?!
1@!
0A!
0B!
0C!
0D!
1E!
1F!
0G!
1H!
0I!
0J!
0K!
1L!
1M!
0N!
0O!
0P!
1Q!
1R!
1S!
1T!
0U!
0V!
0W!
0X!
0Y!
0Z!
0[!
0\!
0]!
0^!
0_!
0`!
0a!
0b!
0c!
0d!
0e!
0f!
0g!
0h!
0i!
0j!
0k!
0l!
0m!
0n!
0o!
0p!
0q!
0r!
0s!
0t!
0u!
0v!
0w!
0x!
0y!
0z!
0{!
0|!
0}!
0~!
0!"
0""
0#"
z'"
0&"
0%"
0$"
z+"
0*"
0)"
0("
0/"
0."
0-"
0,"
0O"
0N"
0M"
0L"
0K"
0J"
0I"
0H"
0G"
0F"
0E"
0D"
0C"
0B"
0A"
0@"
0?"
0>"
0="
0<"
0;"
0:"
09"
08"
07"
06"
05"
04"
03"
02"
01"
00"
$end
#5000
1!
1O
0H
1!"
1~!
1y!
1x!
1w!
1v!
1u!
1s!
1p!
1n!
1l!
1j!
1h!
1f!
1*"
1/"
1|!
1r!
1""
1o!
1i!
1g!
1e!
1X!
1B
1C
1'
1(
1)
1*
1+
1,
12
13
14
15
16
17
#10000
0!
0O
1H
#15000
1!
1O
0H
1#"
1}!
1z!
0w!
0s!
1q!
0p!
0j!
0h!
0f!
1a!
1^!
0*"
1)"
1&"
1Z!
1."
1U!
0/"
1t!
0r!
0o!
1k!
0i!
0g!
0X!
1A
1D
1G
0)
0,
1-
02
05
06
07
1?
1%
11
1<
#20000
0!
0O
1H
#25000
1!
1O
0H
0!"
1{!
0y!
1w!
0v!
0u!
1s!
1p!
0l!
1j!
1h!
1d!
1b!
0a!
1_!
0^!
1*"
1[!
0Z!
1V!
0U!
1/"
0|!
0t!
0k!
1g!
1X!
0B
1F
0'
1)
0*
0+
1,
12
04
15
16
18
1>
0?
1$
0%
10
01
1;
0<
#30000
0!
0O
1H
#35000
1!
1O
0H
1!"
0}!
0{!
0z!
1y!
0x!
1v!
1u!
1l!
0h!
1a!
1^!
0*"
1("
0)"
0&"
1%"
1Z!
1-"
0."
1U!
0/"
1|!
1o!
1i!
0e!
0X!
1B
0D
0F
0G
1'
0(
1*
1+
14
06
1?
1%
11
1<
#40000
0!
0O
1H
#45000
1!
1O
0H
1}!
1{!
1z!
1x!
0p!
0j!
1f!
1c!
0b!
0a!
1`!
0_!
0^!
0("
1\!
0[!
0Z!
1W!
0V!
0U!
1/"
0|!
0""
0o!
1m!
0i!
1X!
1D
1F
1G
1(
02
05
17
1=
0>
0?
1#
0$
0%
1/
00
01
1:
0;
0<
#50000
0!
0O
1H
#55000
1!
1O
0H
0#"
0}!
0{!
0z!
0q!
1p!
0n!
1j!
0c!
0`!
1*"
1&"
1Z!
1."
1U!
0/"
1|!
1r!
1""
0g!
0X!
0A
0D
0F
0G
0-
12
03
15
0=
0#
11
1<
#60000
0!
0O
1H
#65000
1!
1O
0H
1#"
1}!
1z!
0w!
0s!
1q!
1h!
1a!
1^!
0*"
1)"
1[!
0Z!
1V!
0U!
1/"
1t!
0r!
0m!
1i!
1g!
1e!
1X!
1A
1D
1G
0)
0,
1-
16
1?
1%
10
01
1;
0<
#70000
0!
0O
1H
#75000
1!
1O
0H
0!"
1{!
0y!
1w!
0v!
0u!
1s!
1n!
0j!
0h!
0f!
0d!
1b!
0a!
1_!
0^!
1*"
0&"
1$"
0%"
1Z!
1,"
0-"
0."
1U!
0/"
0|!
0t!
0i!
0g!
0e!
0X!
0B
1F
0'
1)
0*
0+
1,
13
05
06
07
08
1>
0?
1$
0%
11
1<
#80000
0!
0O
1H
#85000
1!
1O
0H
1!"
0}!
0{!
0z!
1y!
0x!
1v!
1u!
1j!
1h!
1f!
1d!
1a!
1^!
0*"
1("
0)"
1]!
0\!
0[!
0Z!
1Y!
0W!
0V!
0U!
1/"
1|!
1i!
1g!
1X!
1B
0D
0F
0G
1'
0(
1*
1+
15
16
17
18
1?
1%
1.
0/
00
01
19
0:
0;
0<
#90000
0!
0O
1H
#95000
1!
1O
0H
1}!
1{!
1z!
1x!
0j!
0h!
1c!
0b!
0a!
1`!
0_!
0^!
0("
0$"
1Z!
1."
1U!
0/"
0|!
0""
0g!
0X!
1D
1F
1G
1(
05
06
1=
0>
0?
1#
0$
0%
11
1<
#100000
0!
0O
1H
#105000
1!
1O
0H
0#"
0}!
0{!
0z!
0q!
1h!
0c!
0`!
1*"
0]!
0Z!
1V!
0U!
1/"
1|!
1r!
1""
1o!
1m!
0i!
1X!
0A
0D
0F
0G
0-
16
0=
0#
0.
01
1;
0<
#110000
0!
0O
1H
#115000
1!
1O
0H
1#"
1}!
1z!
0w!
0s!
1q!
0p!
0n!
1j!
1a!
1^!
0*"
1)"
1&"
1Z!
1-"
0."
1U!
0/"
1t!
0r!
0o!
1k!
0X!
1A
1D
1G
0)
0,
1-
02
03
15
1?
1%
11
1<
#120000
0!
0O
1H
#125000
1!
1O
0H
0!"
1{!
0y!
1w!
0v!
0u!
1s!
1p!
0l!
0d!
1b!
0a!
1_!
0^!
1*"
1[!
0Z!
1W!
0V!
0U!
1/"
0|!
0t!
1o!
0m!
0k!
1e!
1X!
0B
1F
0'
1)
0*
0+
1,
12
04
08
1>
0?
1$
0%
10
01
1:
0;
0<
#130000
0!
0O
1H
#135000
1!
1O
0H
1!"
0}!
0{!
0z!
1y!
0x!
1v!
1u!
0p!
1n!
1l!
0f!
1d!
1a!
1^!
0*"
1("
0)"
0&"
1%"
1Z!
1."
1U!
0/"
1|!
0o!
1m!
1k!
0e!
0X!
1B
0D
0F
0G
1'
0(
1*
1+
02
13
14
07
18
1?
1%
11
1<
#140000
0!
0O
1H
#145000
1!
1O
0H
1}!
1{!
1z!
1x!
1p!
0n!
0l!
1f!
1c!
0b!
0a!
1`!
0_!
0^!
0("
1\!
0[!
0Z!
1V!
0U!
1/"
0|!
0""
1i!
1X!
1D
1F
1G
1(
12
03
04
17
1=
0>
0?
1#
0$
0%
1/
00
01
1;
0<
#150000
0!
0O
1H
#155000
1!
1O
0H
0#"
0}!
0{!
0z!
0q!
0j!
0c!
0`!
1*"
1&"
1Z!
0,"
0-"
0."
1U!
0/"
1|!
1r!
1""
0m!
0k!
0i!
0X!
0A
0D
0F
0G
0-
05
0=
0#
11
1<
#160000
0!
0O
1H
#165000
1!
1O
0H
1#"
1}!
1z!
0w!
0s!
1q!
1n!
1l!
1j!
0d!
1a!
1^!
0*"
1)"
1[!
0Z!
0Y!
0W!
0V!
0U!
1/"
1t!
0r!
1o!
1i!
1g!
1e!
1X!
1A
1D
1G
0)
0,
1-
13
14
15
08
1?
1%
10
01
09
0:
0;
0<
#170000
0!
0O
1H
#175000
1!
1O
0H
0!"
1{!
0y!
1w!
0v!
0u!
1s!
0p!
0j!
0h!
0f!
1b!
0a!
1_!
0^!
1*"
0&"
1$"
0%"
1Z!
1."
1U!
0/"
0|!
0t!
0o!
1k!
0i!
0g!
0X!
0B
1F
0'
1)
0*
0+
1,
02
05
06
07
1>
0?
1$
0%
11
1<
#180000
0!
0O
1H
#185000
1!
1O
0H
1!"
0}!
0{!
0z!
1y!
0x!
1v!
1u!
1p!
0l!
1j!
1h!
1d!
1a!
1^!
0*"
1("
0)"
1]!
0\!
0[!
0Z!
1V!
0U!
1/"
1|!
0k!
1g!
1X!
1B
0D
0F
0G
1'
0(
1*
1+
12
04
15
16
18
1?
1%
1.
0/
00
01
1;
0<
#190000
0!
0O
1H
#195000
1!
1O
0H
1}!
1{!
1z!
1x!
1l!
0h!
1c!
0b!
0a!
1`!
0_!
0^!
0("
0$"
1Z!
1-"
0."
1U!
0/"
0|!
0""
1o!
1i!
0e!
0X!
1D
1F
1G
1(
14
06
1=
0>
0?
1#
0$
0%
11
1<
#200000
0!
0O
1H
#205000
1!
1O
0H
0#"
0}!
0{!
0z!
0q!
0p!
0j!
1f!
0c!
0`!
1*"
0]!
0Z!
1W!
0V!
0U!
1/"
1|!
1r!
1""
0o!
1m!
0i!
1X!
0A
0D
0F
0G
0-
02
05
17
0=
0#
0.
01
1:
0;
0<
#210000
0!
0O
1H
#215000
1!
1O
0H
1#"
1}!
1z!
0w!
0s!
1q!
1p!
0n!
1j!
1a!
1^!
0*"
1)"
1&"
1Z!
1."
1U!
0/"
1t!
0r!
0g!
0X!
1A
1D
1G
0)
0,
1-
12
03
15
1?
1%
11
1<
#220000
0!
0O
1H
#225000
1!
1O
0H
0!"
1{!
0y!
1w!
0v!
0u!
1s!
1h!
1b!
0a!
1_!
0^!
1*"
1[!
0Z!
1V!
0U!
1/"
0|!
0t!
0m!
1i!
1g!
1e!
1X!
0B
1F
0'
1)
0*
0+
1,
16
1>
0?
1$
0%
10
01
1;
0<
#230000
0!
0O
1H
#235000
1!
1O
0H
1!"
0}!
0{!
0z!
1y!
0x!
1v!
1u!
1n!
0j!
0h!
0f!
0d!
1a!
1^!
0*"
1("
0)"
0&"
1%"
1Z!
1,"
0-"
0."
1U!
0/"
1|!
0i!
0g!
0e!
0X!
1B
0D
0F
0G
1'
0(
1*
1+
13
05
06
07
08
1?
1%
11
1<
#240000
0!
0O
1H
#245000
1!
1O
0H
1}!
1{!
1z!
1x!
1j!
1h!
1f!
1d!
1c!
0b!
0a!
1`!
0_!
0^!
0("
1\!
0[!
0Z!
1Y!
0W!
0V!
0U!
1/"
0|!
0""
1i!
1g!
1X!
1D
1F
1G
1(
15
16
17
18
1=
0>
0?
1#
0$
0%
1/
00
01
19
0:
0;
0<
#250000
0!
0O
1H
#255000
1!
1O
0H
0#"
0}!
0{!
0z!
0q!
0j!
0h!
0c!
0`!
1*"
1&"
1Z!
1."
1U!
0/"
1|!
1r!
1""
0g!
0X!
0A
0D
0F
0G
0-
05
06
0=
0#
11
1<
#260000
1"
0!
1P
0O
1H
1j!
1h!
0d!
0*"
0\!
0&"
0%"
0Z!
0Y!
0,"
0."
0U!
0|!
0r!
0""
0i!
15
16
08
0/
01
09
0<
#265000
1!
1O
0H
#270000
0!
0O
1H
#275000
1!
1O
0H
#280000
0!
0O
1H
#285000
1!
1O
0H
#290000
0!
0O
1H
#295000
1!
1O
0H
#300000
0!
0O
1H
#305000
1!
1O
0H
#310000
0!
0O
1H
#315000
1!
1O
0H
#320000
0!
0O
1H
#325000
1!
1O
0H
#330000
0!
0O
1H
#335000
1!
1O
0H
#340000
0!
0O
1H
#345000
1!
1O
0H
#350000
0!
0O
1H
#355000
1!
1O
0H
#360000
0!
0O
1H
#365000
1!
1O
0H
#370000
0!
0O
1H
#375000
1!
1O
0H
#380000
0"
0!
0P
0O
1H
#385000
1!
1O
0H
1*"
1/"
1|!
1r!
1""
1o!
1i!
1g!
1e!
1X!
#390000
0!
0O
1H
#395000
1!
1O
0H
1#"
1}!
1z!
0w!
0s!
1q!
0p!
0j!
0h!
0f!
1a!
1^!
0*"
1)"
1&"
1Z!
1."
1U!
0/"
1t!
0r!
0o!
1k!
0i!
0g!
0X!
1A
1D
1G
0)
0,
1-
02
05
06
07
1?
1%
11
1<
#400000
0!
0O
1H
#405000
1!
1O
0H
0!"
1{!
0y!
1w!
0v!
0u!
1s!
1p!
0l!
1j!
1h!
1d!
1b!
0a!
1_!
0^!
1*"
1[!
0Z!
1V!
0U!
1/"
0|!
0t!
0k!
1g!
1X!
0B
1F
0'
1)
0*
0+
1,
12
04
15
16
18
1>
0?
1$
0%
10
01
1;
0<
#410000
0!
0O
1H
#415000
1!
1O
0H
1!"
0}!
0{!
0z!
1y!
0x!
1v!
1u!
1l!
0h!
1a!
1^!
0*"
1("
0)"
0&"
1%"
1Z!
1-"
0."
1U!
0/"
1|!
1o!
1i!
0e!
0X!
1B
0D
0F
0G
1'
0(
1*
1+
14
06
1?
1%
11
1<
#420000
0!
0O
1H
#425000
1!
1O
0H
1}!
1{!
1z!
1x!
0p!
0j!
1f!
1c!
0b!
0a!
1`!
0_!
0^!
0("
1\!
0[!
0Z!
1W!
0V!
0U!
1/"
0|!
0""
0o!
1m!
0i!
1X!
1D
1F
1G
1(
02
05
17
1=
0>
0?
1#
0$
0%
1/
00
01
1:
0;
0<
#430000
0!
0O
1H
#435000
1!
1O
0H
0#"
0}!
0{!
0z!
0q!
1p!
0n!
1j!
0c!
0`!
1*"
1&"
1Z!
1."
1U!
0/"
1|!
1r!
1""
0g!
0X!
0A
0D
0F
0G
0-
12
03
15
0=
0#
11
1<
#440000
0!
0O
1H
#445000
1!
1O
0H
1#"
1}!
1z!
0w!
0s!
1q!
1h!
1a!
1^!
0*"
1)"
1[!
0Z!
1V!
0U!
1/"
1t!
0r!
0m!
1i!
1g!
1e!
1X!
1A
1D
1G
0)
0,
1-
16
1?
1%
10
01
1;
0<
#450000
0!
0O
1H
#455000
1!
1O
0H
0!"
1{!
0y!
1w!
0v!
0u!
1s!
1n!
0j!
0h!
0f!
0d!
1b!
0a!
1_!
0^!
1*"
0&"
1$"
0%"
1Z!
1,"
0-"
0."
1U!
0/"
0|!
0t!
0i!
0g!
0e!
0X!
0B
1F
0'
1)
0*
0+
1,
13
05
06
07
08
1>
0?
1$
0%
11
1<
#460000
0!
0O
1H
#465000
1!
1O
0H
1!"
0}!
0{!
0z!
1y!
0x!
1v!
1u!
1j!
1h!
1f!
1d!
1a!
1^!
0*"
1("
0)"
1]!
0\!
0[!
0Z!
1Y!
0W!
0V!
0U!
1/"
1|!
1i!
1g!
1X!
1B
0D
0F
0G
1'
0(
1*
1+
15
16
17
18
1?
1%
1.
0/
00
01
19
0:
0;
0<
#470000
0!
0O
1H
#475000
1!
1O
0H
1}!
1{!
1z!
1x!
0j!
0h!
1c!
0b!
0a!
1`!
0_!
0^!
0("
0$"
1Z!
1."
1U!
0/"
0|!
0""
0g!
0X!
1D
1F
1G
1(
05
06
1=
0>
0?
1#
0$
0%
11
1<
#480000
0!
0O
1H
#485000
1!
1O
0H
0#"
0}!
0{!
0z!
0q!
1h!
0c!
0`!
1*"
0]!
0Z!
1V!
0U!
1/"
1|!
1r!
1""
1o!
1m!
0i!
1X!
0A
0D
0F
0G
0-
16
0=
0#
0.
01
1;
0<
#490000
0!
0O
1H
#495000
1!
1O
0H
1#"
1}!
1z!
0w!
0s!
1q!
0p!
0n!
1j!
1a!
1^!
0*"
1)"
1&"
1Z!
1-"
0."
1U!
0/"
1t!
0r!
0o!
1k!
0X!
1A
1D
1G
0)
0,
1-
02
03
15
1?
1%
11
1<
#500000
0!
0O
1H
#505000
1!
1O
0H
0!"
1{!
0y!
1w!
0v!
0u!
1s!
1p!
0l!
0d!
1b!
0a!
1_!
0^!
1*"
1[!
0Z!
1W!
0V!
0U!
1/"
0|!
0t!
1o!
0m!
0k!
1e!
1X!
0B
1F
0'
1)
0*
0+
1,
12
04
08
1>
0?
1$
0%
10
01
1:
0;
0<
#510000
0!
0O
1H
#515000
1!
1O
0H
1!"
0}!
0{!
0z!
1y!
0x!
1v!
1u!
0p!
1n!
1l!
0f!
1d!
1a!
1^!
0*"
1("
0)"
0&"
1%"
1Z!
1."
1U!
0/"
1|!
0o!
1m!
1k!
0e!
0X!
1B
0D
0F
0G
1'
0(
1*
1+
02
13
14
07
18
1?
1%
11
1<
#520000
0!
0O
1H
#525000
1!
1O
0H
1}!
1{!
1z!
1x!
1p!
0n!
0l!
1f!
1c!
0b!
0a!
1`!
0_!
0^!
0("
1\!
0[!
0Z!
1V!
0U!
1/"
0|!
0""
1i!
1X!
1D
1F
1G
1(
12
03
04
17
1=
0>
0?
1#
0$
0%
1/
00
01
1;
0<
#530000
0!
0O
1H
#535000
1!
1O
0H
0#"
0}!
0{!
0z!
0q!
0j!
0c!
0`!
1*"
1&"
1Z!
0,"
0-"
0."
1U!
0/"
1|!
1r!
1""
0m!
0k!
0i!
0X!
0A
0D
0F
0G
0-
05
0=
0#
11
1<
#540000
0!
0O
1H
#545000
1!
1O
0H
1#"
1}!
1z!
0w!
0s!
1q!
1n!
1l!
1j!
0d!
1a!
1^!
0*"
1)"
1[!
0Z!
0Y!
0W!
0V!
0U!
1/"
1t!
0r!
1o!
1i!
1g!
1e!
1X!
1A
1D
1G
0)
0,
1-
13
14
15
08
1?
1%
10
01
09
0:
0;
0<
#550000
0!
0O
1H
#555000
1!
1O
0H
0!"
1{!
0y!
1w!
0v!
0u!
1s!
0p!
0j!
0h!
0f!
1b!
0a!
1_!
0^!
1*"
0&"
1$"
0%"
1Z!
1."
1U!
0/"
0|!
0t!
0o!
1k!
0i!
0g!
0X!
0B
1F
0'
1)
0*
0+
1,
02
05
06
07
1>
0?
1$
0%
11
1<
#560000
0!
0O
1H
#565000
1!
1O
0H
1!"
0}!
0{!
0z!
1y!
0x!
1v!
1u!
1p!
0l!
1j!
1h!
1d!
1a!
1^!
0*"
1("
0)"
1]!
0\!
0[!
0Z!
1V!
0U!
1/"
1|!
0k!
1g!
1X!
1B
0D
0F
0G
1'
0(
1*
1+
12
04
15
16
18
1?
1%
1.
0/
00
01
1;
0<
#570000
0!
0O
1H
#575000
1!
1O
0H
1}!
1{!
1z!
1x!
1l!
0h!
1c!
0b!
0a!
1`!
0_!
0^!
0("
0$"
1Z!
1-"
0."
1U!
0/"
0|!
0""
1o!
1i!
0e!
0X!
1D
1F
1G
1(
14
06
1=
0>
0?
1#
0$
0%
11
1<
#580000
0!
0O
1H
#585000
1!
1O
0H
0#"
0}!
0{!
0z!
0q!
0p!
0j!
1f!
0c!
0`!
1*"
0]!
0Z!
1W!
0V!
0U!
1/"
1|!
1r!
1""
0o!
1m!
0i!
1X!
0A
0D
0F
0G
0-
02
05
17
0=
0#
0.
01
1:
0;
0<
#590000
0!
0O
1H
#595000
1!
1O
0H
1#"
1}!
1z!
0w!
0s!
1q!
1p!
0n!
1j!
1a!
1^!
0*"
1)"
1&"
1Z!
1."
1U!
0/"
1t!
0r!
0g!
0X!
1A
1D
1G
0)
0,
1-
12
03
15
1?
1%
11
1<
#600000
0!
0O
1H
#605000
1!
1O
0H
0!"
1{!
0y!
1w!
0v!
0u!
1s!
1h!
1b!
0a!
1_!
0^!
1*"
1[!
0Z!
1V!
0U!
1/"
0|!
0t!
0m!
1i!
1g!
1e!
1X!
0B
1F
0'
1)
0*
0+
1,
16
1>
0?
1$
0%
10
01
1;
0<
#610000
0!
0O
1H
#615000
1!
1O
0H
1!"
0}!
0{!
0z!
1y!
0x!
1v!
1u!
1n!
0j!
0h!
0f!
0d!
1a!
1^!
0*"
1("
0)"
0&"
1%"
1Z!
1,"
0-"
0."
1U!
0/"
1|!
0i!
0g!
0e!
0X!
1B
0D
0F
0G
1'
0(
1*
1+
13
05
06
07
08
1?
1%
11
1<
#620000
0!
0O
1H
