HW3_Counter_raw/Counter_old/simulation/qsim/Counter.msim.vcd
$comment
	File created using the following command:
		vcd file Counter.msim.vcd -direction
$end
$date
	Mon Apr 27 15:04:44 2020
$end
$version
	ModelSim Version 10.1d
$end
$timescale
	1ps
$end
$scope module Counter_vlg_vec_tst $end
$var reg 1 ! clock $end
$var reg 1 " reset $end
$var wire 1 # natural_out_encoded_0 [6] $end
$var wire 1 $ natural_out_encoded_0 [5] $end
$var wire 1 % natural_out_encoded_0 [4] $end
$var wire 1 & natural_out_encoded_0 [3] $end
$var wire 1 ' natural_out_encoded_0 [2] $end
$var wire 1 ( natural_out_encoded_0 [1] $end
$var wire 1 ) natural_out_encoded_0 [0] $end
$var wire 1 * natural_out_encoded_1 [6] $end
$var wire 1 + natural_out_encoded_1 [5] $end
$var wire 1 , natural_out_encoded_1 [4] $end
$var wire 1 - natural_out_encoded_1 [3] $end
$var wire 1 . natural_out_encoded_1 [2] $end
$var wire 1 / natural_out_encoded_1 [1] $end
$var wire 1 0 natural_out_encoded_1 [0] $end
$var wire 1 1 sampler $end
$scope module i1 $end
$var wire 1 2 gnd $end
$var wire 1 3 vcc $end
$var wire 1 4 unknown $end
$var tri1 1 5 devclrn $end
$var tri1 1 6 devpor $end
$var tri1 1 7 devoe $end
$var wire 1 8 clock~combout $end
$var wire 1 9 reset~combout $end
$var wire 1 : Add2~155_combout $end
$var wire 1 ; Add2~157 $end
$var wire 1 < Add2~150_combout $end
$var wire 1 = Add2~152 $end
$var wire 1 > Add2~152COUT1_186 $end
$var wire 1 ? Add2~145_combout $end
$var wire 1 @ Add2~147 $end
$var wire 1 A Add2~147COUT1_188 $end
$var wire 1 B Add2~140_combout $end
$var wire 1 C Add2~142 $end
$var wire 1 D Add2~142COUT1_190 $end
$var wire 1 E Add2~135_combout $end
$var wire 1 F Add2~137 $end
$var wire 1 G Add2~137COUT1_192 $end
$var wire 1 H Add2~130_combout $end
$var wire 1 I Add2~132 $end
$var wire 1 J Add2~125_combout $end
$var wire 1 K Add2~127 $end
$var wire 1 L Add2~127COUT1_194 $end
$var wire 1 M Add2~120_combout $end
$var wire 1 N Add2~122 $end
$var wire 1 O Add2~122COUT1_196 $end
$var wire 1 P Add2~105_combout $end
$var wire 1 Q Add2~107 $end
$var wire 1 R Add2~107COUT1_198 $end
$var wire 1 S Add2~100_combout $end
$var wire 1 T Add2~102 $end
$var wire 1 U Add2~102COUT1_200 $end
$var wire 1 V Add2~95_combout $end
$var wire 1 W Add2~97 $end
$var wire 1 X Add2~90_combout $end
$var wire 1 Y Add2~92 $end
$var wire 1 Z Add2~92COUT1_202 $end
$var wire 1 [ Add2~115_combout $end
$var wire 1 \ Add2~117 $end
$var wire 1 ] Add2~117COUT1_204 $end
$var wire 1 ^ Add2~110_combout $end
$var wire 1 _ Equal0~6 $end
$var wire 1 ` Add2~112 $end
$var wire 1 a Add2~112COUT1_206 $end
$var wire 1 b Add2~85_combout $end
$var wire 1 c Add2~87 $end
$var wire 1 d Add2~87COUT1_208 $end
$var wire 1 e Add2~80_combout $end
$var wire 1 f Equal0~5 $end
$var wire 1 g Equal0~7 $end
$var wire 1 h Equal0~8 $end
$var wire 1 i Equal0~9 $end
$var wire 1 j Add2~82 $end
$var wire 1 k Add2~75_combout $end
$var wire 1 l Add2~77 $end
$var wire 1 m Add2~77COUT1_210 $end
$var wire 1 n Add2~70_combout $end
$var wire 1 o Add2~72 $end
$var wire 1 p Add2~72COUT1_212 $end
$var wire 1 q Add2~65_combout $end
$var wire 1 r Add2~67 $end
$var wire 1 s Add2~67COUT1_214 $end
$var wire 1 t Add2~60_combout $end
$var wire 1 u Equal0~3 $end
$var wire 1 v Add2~62 $end
$var wire 1 w Add2~62COUT1_216 $end
$var wire 1 x Add2~55_combout $end
$var wire 1 y Add2~57 $end
$var wire 1 z Add2~50_combout $end
$var wire 1 { Add2~52 $end
$var wire 1 | Add2~52COUT1_218 $end
$var wire 1 } Add2~45_combout $end
$var wire 1 ~ Add2~47 $end
$var wire 1 !! Add2~47COUT1_220 $end
$var wire 1 "! Add2~40_combout $end
$var wire 1 #! Add2~42 $end
$var wire 1 $! Add2~42COUT1_222 $end
$var wire 1 %! Add2~35_combout $end
$var wire 1 &! Add2~37 $end
$var wire 1 '! Add2~37COUT1_224 $end
$var wire 1 (! Add2~30_combout $end
$var wire 1 )! Add2~32 $end
$var wire 1 *! Add2~25_combout $end
$var wire 1 +! Add2~27 $end
$var wire 1 ,! Add2~27COUT1_226 $end
$var wire 1 -! Add2~20_combout $end
$var wire 1 .! Equal0~1 $end
$var wire 1 /! Equal0~2 $end
$var wire 1 0! Add2~22 $end
$var wire 1 1! Add2~22COUT1_228 $end
$var wire 1 2! Add2~15_combout $end
$var wire 1 3! Add2~17 $end
$var wire 1 4! Add2~17COUT1_230 $end
$var wire 1 5! Add2~10_combout $end
$var wire 1 6! Add2~12 $end
$var wire 1 7! Add2~12COUT1_232 $end
$var wire 1 8! Add2~5_combout $end
$var wire 1 9! Add2~7 $end
$var wire 1 :! Add2~0_combout $end
$var wire 1 ;! Equal0~0 $end
$var wire 1 <! Equal0~4_combout $end
$var wire 1 =! Equal0~10_combout $end
$var wire 1 >! natural_out_encoded_0[0]~reg0_regout $end
$var wire 1 ?! natural_out_encoded_0[1]~reg0_regout $end
$var wire 1 @! natural_out_encoded_0[2]~reg0_regout $end
$var wire 1 A! natural_out_encoded_0[3]~reg0_regout $end
$var wire 1 B! natural_out_encoded_0[4]~reg0_regout $end
$var wire 1 C! natural_out_encoded_0[5]~reg0_regout $end
$var wire 1 D! natural_out_encoded_0[6]~reg0_regout $end
$var wire 1 E! Equal1~0_combout $end
$var wire 1 F! natural_seq_hex_1[3]~0_combout $end
$var wire 1 G! natural_seq_hex_1[3]~3_combout $end
$var wire 1 H! natural_out_encoded_1[0]~reg0_regout $end
$var wire 1 I! natural_out_encoded_1[1]~reg0_regout $end
$var wire 1 J! natural_out_encoded_1[2]~reg0_regout $end
$var wire 1 K! natural_out_encoded_1[3]~reg0_regout $end
$var wire 1 L! natural_out_encoded_1[4]~reg0_regout $end
$var wire 1 M! natural_out_encoded_1[5]~reg0_regout $end
$var wire 1 N! natural_out_encoded_1[6]~reg0_regout $end
$var wire 1 O! natural_seq_hex_1 [3] $end
$var wire 1 P! natural_seq_hex_1 [2] $end
$var wire 1 Q! natural_seq_hex_1 [1] $end
$var wire 1 R! natural_seq_hex_1 [0] $end
$var wire 1 S! natural_seq_hex_0 [3] $end
$var wire 1 T! natural_seq_hex_0 [2] $end
$var wire 1 U! natural_seq_hex_0 [1] $end
$var wire 1 V! natural_seq_hex_0 [0] $end
$var wire 1 W! clock_cycle [31] $end
$var wire 1 X! clock_cycle [30] $end
$var wire 1 Y! clock_cycle [29] $end
$var wire 1 Z! clock_cycle [28] $end
$var wire 1 [! clock_cycle [27] $end
$var wire 1 \! clock_cycle [26] $end
$var wire 1 ]! clock_cycle [25] $end
$var wire 1 ^! clock_cycle [24] $end
$var wire 1 _! clock_cycle [23] $end
$var wire 1 `! clock_cycle [22] $end
$var wire 1 a! clock_cycle [21] $end
$var wire 1 b! clock_cycle [20] $end
$var wire 1 c! clock_cycle [19] $end
$var wire 1 d! clock_cycle [18] $end
$var wire 1 e! clock_cycle [17] $end
$var wire 1 f! clock_cycle [16] $end
$var wire 1 g! clock_cycle [15] $end
$var wire 1 h! clock_cycle [14] $end
$var wire 1 i! clock_cycle [13] $end
$var wire 1 j! clock_cycle [12] $end
$var wire 1 k! clock_cycle [11] $end
$var wire 1 l! clock_cycle [10] $end
$var wire 1 m! clock_cycle [9] $end
$var wire 1 n! clock_cycle [8] $end
$var wire 1 o! clock_cycle [7] $end
$var wire 1 p! clock_cycle [6] $end
$var wire 1 q! clock_cycle [5] $end
$var wire 1 r! clock_cycle [4] $end
$var wire 1 s! clock_cycle [3] $end
$var wire 1 t! clock_cycle [2] $end
$var wire 1 u! clock_cycle [1] $end
$var wire 1 v! clock_cycle [0] $end
$upscope $end
$upscope $end
$enddefinitions $end
#0
$dumpvars
0!
0"
1v
1w
0x
0y
0z
1{
1|
0}
0~
0!!
0"!
1#!
1$!
0%!
0&!
0'!
0(!
1)!
0*!
0+!
0,!
0-!
1.!
1/!
10!
11!
02!
03!
04!
05!
16!
17!
08!
09!
0:!
1;!
1<!
1=!
0>!
0?!
0@!
0A!
0B!
0C!
0D!
0E!
0F!
0G!
0H!
0I!
0J!
0K!
0L!
0M!
0N!
0R!
0Q!
0P!
0O!
0V!
0U!
0T!
0S!
0v!
0u!
0t!
0s!
0r!
0q!
0p!
0o!
0n!
0m!
0l!
0k!
0j!
0i!
0h!
0g!
0f!
0e!
0d!
0c!
0b!
0a!
0`!
0_!
0^!
0]!
0\!
0[!
0Z!
0Y!
0X!
0W!
0)
1(
1'
1&
1%
1$
1#
00
1/
1.
1-
1,
1+
1*
x1
02
13
x4
15
16
17
08
09
1:
0;
0<
1=
1>
0?
0@
0A
0B
1C
1D
0E
0F
0G
0H
1I
0J
0K
0L
0M
1N
1O
0P
0Q
0R
0S
1T
1U
0V
0W
0X
1Y
1Z
0[
0\
0]
0^
1_
1`
1a
0b
0c
0d
0e
1f
1g
1h
1i
1j
0k
0l
0m
0n
1o
1p
0q
0r
0s
0t
1u
$end
#5000
1!
18
01
1V!
#10000
0!
08
11
#15000
1!
18
01
1D!
1A!
1@!
1?!
1U!
0V!
0#
0&
0'
0(
#20000
0!
08
11
#25000
1!
18
01
0D!
1B!
0A!
0@!
1>!
1V!
1)
1#
0%
1&
1'
#30000
0!
08
11
#35000
1!
18
01
0B!
1@!
1T!
0U!
0V!
1%
0'
#40000
0!
08
11
#45000
1!
18
01
1D!
1A!
0?!
1V!
0#
0&
1(
#50000
0!
08
11
#55000
1!
18
01
0D!
1C!
0A!
1U!
0V!
1#
0$
1&
#60000
0!
08
11
#65000
1!
18
01
0@!
1V!
1'
#70000
0!
08
11
#75000
1!
18
01
0C!
1A!
1@!
1?!
0>!
0T!
0U!
1S!
0V!
0)
1$
0&
0'
0(
#80000
0!
08
11
#85000
1!
18
01
0A!
0@!
0?!
1>!
1V!
1E!
1)
1&
1'
1(
1F!
#90000
0!
08
11
#95000
1!
18
01
1R!
1A!
1@!
0S!
0V!
0E!
0&
0'
0F!
#100000
0!
08
11
#105000
1!
18
01
1N!
1K!
1J!
1I!
0A!
0@!
0>!
1V!
0)
0*
0-
0.
0/
1&
1'
#110000
0!
08
11
#115000
1!
18
01
1D!
1A!
1@!
1?!
1U!
0V!
0#
0&
0'
0(
#120000
0!
08
11
#125000
1!
18
01
0D!
1B!
0A!
0@!
1>!
1V!
1)
1#
0%
1&
1'
#130000
0!
08
11
#135000
1!
18
01
0B!
1@!
1T!
0U!
0V!
1%
0'
#140000
0!
08
11
#145000
1!
18
01
1D!
1A!
0?!
1V!
0#
0&
1(
#150000
0!
08
11
#155000
1!
18
01
0D!
1C!
0A!
1U!
0V!
1#
0$
1&
#160000
0!
08
11
#165000
1!
18
01
0@!
1V!
1'
#170000
0!
08
11
#175000
1!
18
01
0C!
1A!
1@!
1?!
0>!
0T!
0U!
1S!
0V!
0)
1$
0&
0'
0(
#180000
0!
08
11
#185000
1!
18
01
0A!
0@!
0?!
1>!
1V!
1E!
1)
1&
1'
1(
1F!
#190000
0!
08
11
#195000
1!
18
01
1Q!
0R!
1A!
1@!
0S!
0V!
0E!
0&
0'
0F!
#200000
0!
08
11
#205000
1!
18
01
0N!
1L!
0K!
0J!
1H!
0A!
0@!
0>!
1V!
10
0)
1*
0,
1-
1.
1&
1'
#210000
0!
08
11
#215000
1!
18
01
1D!
1A!
1@!
1?!
1U!
0V!
0#
0&
0'
0(
#220000
1"
0!
19
08
11
0L!
0I!
0H!
0Q!
0D!
0A!
0@!
0?!
0U!
00
1,
1/
1#
1&
1'
1(
#225000
1!
18
01
#230000
0!
08
11
#235000
1!
18
01
#240000
0!
08
11
#245000
1!
18
01
#250000
0!
08
11
#255000
1!
18
01
#260000
0!
08
11
#265000
1!
18
01
#270000
0!
08
11
#275000
1!
18
01
#280000
0"
0!
09
08
11
#285000
1!
18
01
1V!
#290000
0!
08
11
#295000
1!
18
01
1D!
1A!
1@!
1?!
1U!
0V!
0#
0&
0'
0(
#300000
0!
08
11
#305000
1!
18
01
0D!
1B!
0A!
0@!
1>!
1V!
1)
1#
0%
1&
1'
#310000
0!
08
11
#315000
1!
18
01
0B!
1@!
1T!
0U!
0V!
1%
0'
#320000
0!
08
11
#325000
1!
18
01
1D!
1A!
0?!
1V!
0#
0&
1(
#330000
0!
08
11
#335000
1!
18
01
0D!
1C!
0A!
1U!
0V!
1#
0$
1&
#340000
0!
08
11
#345000
1!
18
01
0@!
1V!
1'
#350000
0!
08
11
#355000
1!
18
01
0C!
1A!
1@!
1?!
0>!
0T!
0U!
1S!
0V!
0)
1$
0&
0'
0(
#360000
0!
08
11
#365000
1!
18
01
0A!
0@!
0?!
1>!
1V!
1E!
1)
1&
1'
1(
1F!
#370000
0!
08
11
#375000
1!
18
01
1R!
1A!
1@!
0S!
0V!
0E!
0&
0'
0F!
#380000
0!
08
11
#385000
1!
18
01
1N!
1K!
1J!
1I!
0A!
0@!
0>!
1V!
0)
0*
0-
0.
0/
1&
1'
#390000
0!
08
11
#395000
1!
18
01
1D!
1A!
1@!
1?!
1U!
0V!
0#
0&
0'
0(
#400000
0!
08
11
#405000
1!
18
01
0D!
1B!
0A!
0@!
1>!
1V!
1)
1#
0%
1&
1'
#410000
0!
08
11
#415000
1!
18
01
0B!
1@!
1T!
0U!
0V!
1%
0'
#420000
0!
08
11
#425000
1!
18
01
1D!
1A!
0?!
1V!
0#
0&
1(
#430000
0!
08
11
#435000
1!
18
01
0D!
1C!
0A!
1U!
0V!
1#
0$
1&
#440000
0!
08
11
#445000
1!
18
01
0@!
1V!
1'
#450000
0!
08
11
#455000
1!
18
01
0C!
1A!
1@!
1?!
0>!
0T!
0U!
1S!
0V!
0)
1$
0&
0'
0(
#460000
0!
08
11
#465000
1!
18
01
0A!
0@!
0?!
1>!
1V!
1E!
1)
1&
1'
1(
1F!
#470000
0!
08
11
#475000
1!
18
01
1Q!
0R!
1A!
1@!
0S!
0V!
0E!
0&
0'
0F!
#480000
0!
08
11
#485000
1!
18
01
0N!
1L!
0K!
0J!
1H!
0A!
0@!
0>!
1V!
10
0)
1*
0,
1-
1.
1&
1'
#490000
0!
08
11
#495000
1!
18
01
1D!
1A!
1@!
1?!
1U!
0V!
0#
0&
0'
0(
#500000
0!
08
11
#505000
1!
18
01
0D!
1B!
0A!
0@!
1>!
1V!
1)
1#
0%
1&
1'
#510000
0!
08
11
#515000
1!
18
01
0B!
1@!
1T!
0U!
0V!
1%
0'
#520000
0!
08
11
#525000
1!
18
01
1D!
1A!
0?!
1V!
0#
0&
1(
#530000
0!
08
11
#535000
1!
18
01
0D!
1C!
0A!
1U!
0V!
1#
0$
1&
#540000
0!
08
11
#545000
1!
18
01
0@!
1V!
1'
#550000
0!
08
11
#555000
1!
18
01
0C!
1A!
1@!
1?!
0>!
0T!
0U!
1S!
0V!
0)
1$
0&
0'
0(
#560000
0!
08
11
#565000
1!
18
01
0A!
0@!
0?!
1>!
1V!
1E!
1)
1&
1'
1(
1F!
#570000
0!
08
11
#575000
1!
18
01
1R!
1A!
1@!
0S!
0V!
0E!
0&
0'
0F!
#580000
0!
08
11
#585000
1!
18
01
0L!
1J!
0A!
0@!
0>!
1V!
0)
1,
0.
1&
1'
#590000
0!
08
11
#595000
1!
18
01
1D!
1A!
1@!
1?!
1U!
0V!
0#
0&
0'
0(
#600000
0!
08
11
#605000
1!
18
01
0D!
1B!
0A!
0@!
1>!
1V!
1)
1#
0%
1&
1'
#610000
0!
08
11
#615000
1!
18
01
0B!
1@!
1T!
0U!
0V!
1%
0'
#620000
0!
08
11
#625000
1!
18
01
1D!
1A!
0?!
1V!
0#
0&
1(
#630000
0!
08
11
#635000
1!
18
01
0D!
1C!
0A!
1U!
0V!
1#
0$
1&
#640000
0!
08
11
#645000
1!
18
01
0@!
1V!
1'
#650000
0!
08
11
#655000
1!
18
01
0C!
1A!
1@!
1?!
0>!
0T!
0U!
1S!
0V!
0)
1$
0&
0'
0(
#660000
0!
08
11
#665000
1!
18
01
0A!
0@!
0?!
1>!
1V!
1E!
1)
1&
1'
1(
1F!
#670000
0!
08
11
#675000
1!
18
01
1P!
0Q!
0R!
1A!
1@!
0S!
0V!
0E!
0&
0'
0F!
#680000
0!
08
11
#685000
1!
18
01
1N!
1K!
0I!
0A!
0@!
0>!
1V!
0)
0*
0-
1/
1&
1'
#690000
0!
08
11
#695000
1!
18
01
1D!
1A!
1@!
1?!
1U!
0V!
0#
0&
0'
0(
#700000
0!
08
11
#705000
1!
18
01
0D!
1B!
0A!
0@!
1>!
1V!
1)
1#
0%
1&
1'
#710000
0!
08
11
#715000
1!
18
01
0B!
1@!
1T!
0U!
0V!
1%
0'
#720000
0!
08
11
#725000
1!
18
01
1D!
1A!
0?!
1V!
0#
0&
1(
#730000
0!
08
11
#735000
1!
18
01
0D!
1C!
0A!
1U!
0V!
1#
0$
1&
#740000
0!
08
11
#745000
1!
18
01
0@!
1V!
1'
#750000
0!
08
11
#755000
1!
18
01
0C!
1A!
1@!
1?!
0>!
0T!
0U!
1S!
0V!
0)
1$
0&
0'
0(
#760000
0!
08
11
#765000
1!
18
01
0A!
0@!
0?!
1>!
1V!
1E!
1)
1&
1'
1(
1F!
#770000
0!
08
11
#775000
1!
18
01
1R!
1A!
1@!
0S!
0V!
0E!
0&
0'
0F!
#780000
0!
08
11
#785000
1!
18
01
0N!
1M!
0K!
0A!
0@!
0>!
1V!
0)
1*
0+
1-
1&
1'
#790000
0!
08
11
#795000
1!
18
01
1D!
1A!
1@!
1?!
1U!
0V!
0#
0&
0'
0(
#800000
0!
08
11
#805000
1!
18
01
0D!
1B!
0A!
0@!
1>!
1V!
1)
1#
0%
1&
1'
#810000
0!
08
11
#815000
1!
18
01
0B!
1@!
1T!
0U!
0V!
1%
0'
#820000
0!
08
11
#825000
1!
18
01
1D!
1A!
0?!
1V!
0#
0&
1(
#830000
0!
08
11
#835000
1!
18
01
0D!
1C!
0A!
1U!
0V!
1#
0$
1&
#840000
0!
08
11
#845000
1!
18
01
0@!
1V!
1'
#850000
0!
08
11
#855000
1!
18
01
0C!
1A!
1@!
1?!
0>!
0T!
0U!
1S!
0V!
0)
1$
0&
0'
0(
#860000
0!
08
11
#865000
1!
18
01
0A!
0@!
0?!
1>!
1V!
1E!
1)
1&
1'
1(
1F!
#870000
0!
08
11
#875000
1!
18
01
0P!
0R!
1A!
1@!
0S!
0V!
0E!
0&
0'
0F!
#880000
0!
08
11
#885000
1!
18
01
0M!
0J!
0H!
0A!
0@!
0>!
1V!
00
0)
1+
1.
1&
1'
#890000
0!
08
11
#895000
1!
18
01
1D!
1A!
1@!
1?!
1U!
0V!
0#
0&
0'
0(
#900000
0!
08
11
#905000
1!
18
01
0D!
1B!
0A!
0@!
1>!
1V!
1)
1#
0%
1&
1'
#910000
0!
08
11
#915000
1!
18
01
0B!
1@!
1T!
0U!
0V!
1%
0'
#920000
0!
08
11
#925000
1!
18
01
1D!
1A!
0?!
1V!
0#
0&
1(
#930000
0!
08
11
#935000
1!
18
01
0D!
1C!
0A!
1U!
0V!
1#
0$
1&
#940000
0!
08
11
#945000
1!
18
01
0@!
1V!
1'
#950000
0!
08
11
#955000
1!
18
01
0C!
1A!
1@!
1?!
0>!
0T!
0U!
1S!
0V!
0)
1$
0&
0'
0(
#960000
0!
08
11
#965000
1!
18
01
0A!
0@!
0?!
1>!
1V!
1E!
1)
1&
1'
1(
1F!
#970000
0!
08
11
#975000
1!
18
01
1R!
1A!
1@!
0S!
0V!
0E!
0&
0'
0F!
#980000
0!
08
11
#985000
1!
18
01
1N!
1K!
1J!
1I!
0A!
0@!
0>!
1V!
0)
0*
0-
0.
0/
1&
1'
#990000
0!
08
11
#995000
1!
18
01
1D!
1A!
1@!
1?!
1U!
0V!
0#
0&
0'
0(
